<?xml version="1.0" encoding="utf-8"?>
<!-- Generator: Adobe Illustrator 16.0.0, SVG Export Plug-In . SVG Version: 6.00 Build 0)  -->
<!DOCTYPE svg PUBLIC "-//W3C//DTD SVG 1.1//EN" "http://www.w3.org/Graphics/SVG/1.1/DTD/svg11.dtd">
<svg version="1.1" id="Layer_1" xmlns="http://www.w3.org/2000/svg" xmlns:xlink="http://www.w3.org/1999/xlink" x="0px" y="0px"
	 width="88.846px" height="76.158px" viewBox="0 0 88.846 76.158" enable-background="new 0 0 88.846 76.158" xml:space="preserve">
<g>
	<path fill="#FFFFFF" d="M8.339,71.677c-0.767,1.274-2.157,2.124-3.749,2.124c-2.418,0-4.398-1.958-4.398-4.364
		c0-2.311,1.98-4.269,4.398-4.269c1.58,0,2.959,0.85,3.725,2.075H7.242c-0.637-0.743-1.58-1.214-2.652-1.214
		c-1.947,0-3.503,1.556-3.503,3.407c0,1.945,1.556,3.503,3.503,3.503c1.084,0,2.051-0.484,2.676-1.263H8.339z"/>
	<rect x="10.697" y="65.263" fill="#FFFFFF" width="0.789" height="8.418"/>
	<path fill="#FFFFFF" d="M13.785,71.1c0-1.476,1.215-2.689,2.689-2.689c0.79,0,1.486,0.366,1.957,0.933v-0.85h0.791v5.213h-0.791
		v-0.85c-0.471,0.577-1.167,0.956-1.957,0.956C15,73.813,13.785,72.55,13.785,71.1 M18.385,71.1c0-1.051-0.908-1.91-1.934-1.91
		c-1.05,0-1.84,0.859-1.84,1.91c0,1.025,0.79,1.935,1.84,1.935C17.477,73.034,18.385,72.125,18.385,71.1"/>
	<path fill="#FFFFFF" d="M24.705,69.767c-0.071-0.353-0.461-0.613-1.073-0.613c-0.626,0-1.062,0.295-1.062,0.684
		c0,0.39,0.342,0.613,1.191,0.778c1.332,0.271,1.863,0.731,1.863,1.593c0,0.907-0.697,1.556-1.993,1.556
		c-1.168,0-1.946-0.648-1.993-1.556h0.719c0.071,0.437,0.602,0.813,1.274,0.813c0.767,0,1.273-0.342,1.273-0.813
		c0-0.495-0.33-0.66-1.273-0.85c-1.239-0.247-1.793-0.695-1.793-1.521c0-0.79,0.613-1.427,1.793-1.427
		c1.025,0,1.709,0.567,1.792,1.356H24.705z"/>
	<path fill="#FFFFFF" d="M30.742,69.767c-0.071-0.353-0.461-0.613-1.073-0.613c-0.625,0-1.062,0.295-1.062,0.684
		c0,0.39,0.342,0.613,1.191,0.778c1.332,0.271,1.862,0.731,1.862,1.593c0,0.907-0.694,1.556-1.992,1.556
		c-1.167,0-1.946-0.648-1.993-1.556h0.72c0.07,0.437,0.601,0.813,1.273,0.813c0.767,0,1.273-0.342,1.273-0.813
		c0-0.495-0.331-0.66-1.273-0.85c-1.239-0.247-1.793-0.695-1.793-1.521c0-0.79,0.614-1.427,1.793-1.427
		c1.026,0,1.71,0.567,1.792,1.356H30.742z"/>
	<path fill="#FFFFFF" d="M38.312,71.1c0-1.476,1.215-2.689,2.688-2.689c1.475,0,2.688,1.214,2.688,2.689
		c0,1.45-1.214,2.713-2.688,2.713C39.526,73.813,38.312,72.55,38.312,71.1 M39.137,71.1c0,1.025,0.814,1.935,1.863,1.935
		c1.05,0,1.863-0.909,1.863-1.935c0-1.051-0.813-1.91-1.863-1.91C39.951,69.189,39.137,70.049,39.137,71.1"/>
	<path fill="#FFFFFF" d="M46.389,73.681v-4.468h-0.696v-0.72h0.696v-0.707c0-1.274,0.035-2.784,1.898-2.523v0.729
		c-1.215-0.152-1.109,1.027-1.109,1.794v0.707h1.051v0.72h-1.051v4.468H46.389z"/>
	<polygon fill="#FFFFFF" points="55.35,65.263 56.211,65.263 56.211,72.856 60.091,72.856 60.091,73.681 55.35,73.681 	"/>
	<path fill="#FFFFFF" d="M62.259,66.877c0-0.282,0.248-0.543,0.566-0.543c0.295,0,0.556,0.261,0.556,0.543
		c0,0.318-0.261,0.567-0.556,0.567C62.507,67.444,62.259,67.195,62.259,66.877 M62.425,68.493h0.825v5.188h-0.825V68.493z"/>
	<polygon fill="#FFFFFF" points="65.266,68.493 66.127,68.493 67.838,72.633 69.536,68.493 70.396,68.493 68.262,73.681 
		67.399,73.681 	"/>
	<path fill="#FFFFFF" d="M72.294,66.877c0-0.282,0.247-0.543,0.565-0.543c0.294,0,0.555,0.261,0.555,0.543
		c0,0.318-0.261,0.567-0.555,0.567C72.541,67.444,72.294,67.195,72.294,66.877 M72.46,68.493h0.824v5.188H72.46V68.493z"/>
	<path fill="#FFFFFF" d="M76.067,68.493h0.789v0.625c0.413-0.448,0.992-0.708,1.699-0.708c1.485,0,2.122,0.66,2.122,2.313v2.958
		h-0.79v-2.958c0-1.027-0.473-1.533-1.332-1.533c-1.05-0.024-1.699,0.566-1.699,1.732v2.759h-0.789V68.493z"/>
	<path fill="#FFFFFF" d="M88.425,68.493v4.717c0,2.041-1.215,2.948-2.688,2.948c-1.168,0-2.17-0.743-2.535-1.792h0.896
		c0.318,0.589,0.919,1.014,1.639,1.014c1.049,0,1.862-0.554,1.862-2.17v-0.342c-0.472,0.543-1.155,0.896-1.934,0.896
		c-1.475,0-2.689-1.214-2.689-2.688c0-1.452,1.215-2.713,2.689-2.713c0.778,0,1.462,0.365,1.934,0.919v-0.789H88.425z
		 M87.575,71.076c0-1.027-0.907-1.935-1.933-1.935c-1.051,0-1.841,0.907-1.841,1.935c0,1.049,0.79,1.91,1.841,1.91
		C86.668,72.986,87.575,72.125,87.575,71.076"/>
	<rect y="61.805" fill="#FFFFFF" width="88.846" height="0.489"/>
	<polygon fill="#FFFFFF" points="12.079,35.523 17.87,35.523 20.036,35.523 32.044,35.523 32.044,30.403 25.202,30.403 
		42.102,13.632 42.102,35.523 47.649,35.523 47.649,0 	"/>
	<polygon fill="#FFFFFF" points="62.173,30.53 55.254,30.53 55.254,8.623 50.848,8.623 50.848,35.523 62.173,35.523 	"/>
	<rect x="50.871" y="35.523" fill="#FFFFFF" width="0.303" height="0.003"/>
	<polygon fill="#FFFFFF" points="69.84,30.53 69.84,16.407 65.432,16.407 65.432,35.523 76.754,35.523 76.754,30.53 	"/>
	<path fill="#FFFFFF" d="M17.259,54.617c0,2.278-0.974,3.409-2.923,3.409h-2.182v-6.3h2.209c0.965,0,1.7,0.28,2.203,0.856
		C17.023,53.091,17.259,53.771,17.259,54.617 M16.412,54.617c0-0.802-0.209-1.381-0.618-1.726c-0.356-0.302-0.899-0.456-1.639-0.456
		h-1.171v4.883h1.262c0.844,0,1.437-0.284,1.787-0.843C16.287,56.059,16.412,55.434,16.412,54.617"/>
	<polygon fill="#FFFFFF" points="22.789,58.026 18.499,58.026 18.499,51.727 22.772,51.727 22.772,52.436 19.33,52.436 
		19.33,54.432 22.541,54.432 22.541,55.142 19.33,55.142 19.33,57.318 22.789,57.318 	"/>
	<polygon fill="#FFFFFF" points="29.24,51.727 27.047,58.026 26.113,58.026 23.929,51.727 24.809,51.727 26.586,57.183 
		28.373,51.727 	"/>
	<polygon fill="#FFFFFF" points="34.678,58.026 30.379,58.026 30.379,51.727 34.65,51.727 34.65,52.436 31.21,52.436 31.21,54.432 
		34.421,54.432 34.421,55.142 31.21,55.142 31.21,57.318 34.678,57.318 	"/>
	<polygon fill="#FFFFFF" points="40.015,58.026 35.907,58.026 35.907,51.727 36.735,51.727 36.735,57.318 40.015,57.318 	"/>
	<path fill="#FFFFFF" d="M46.391,54.933c0,0.907-0.267,1.662-0.809,2.265c-0.552,0.624-1.27,0.931-2.144,0.931
		c-0.899,0-1.628-0.307-2.18-0.931c-0.536-0.593-0.801-1.346-0.801-2.265c0-0.906,0.273-1.668,0.827-2.287
		c0.551-0.613,1.271-0.919,2.153-0.919c0.855,0,1.56,0.311,2.122,0.926C46.112,53.271,46.391,54.031,46.391,54.933 M45.598,54.945
		c0-0.72-0.207-1.32-0.6-1.805c-0.401-0.488-0.917-0.73-1.56-0.73c-0.661,0-1.184,0.239-1.573,0.724
		c-0.384,0.479-0.58,1.082-0.58,1.812c0,0.716,0.196,1.317,0.588,1.808c0.39,0.476,0.914,0.722,1.565,0.722s1.17-0.246,1.564-0.722
		C45.398,56.263,45.598,55.661,45.598,54.945"/>
	<path fill="#FFFFFF" d="M52.15,53.535c0,0.697-0.205,1.206-0.628,1.523c-0.326,0.257-0.753,0.394-1.269,0.394h-1.889v2.574h-0.829
		v-6.3h2.459C51.435,51.727,52.15,52.334,52.15,53.535 M51.321,53.575c0-0.769-0.462-1.15-1.394-1.15h-1.563v2.312h1.489
		c0.471,0,0.812-0.074,1.036-0.216C51.18,54.347,51.321,54.028,51.321,53.575"/>
	<polygon fill="#FFFFFF" points="59.372,58.026 58.593,58.026 58.593,52.732 56.642,58.026 55.945,58.026 53.99,52.676 
		53.99,58.026 53.212,58.026 53.212,51.727 54.342,51.727 56.277,57.024 58.228,51.727 59.372,51.727 	"/>
	<polygon fill="#FFFFFF" points="64.771,58.026 60.471,58.026 60.471,51.727 64.746,51.727 64.746,52.436 61.304,52.436 
		61.304,54.432 64.513,54.432 64.513,55.142 61.304,55.142 61.304,57.318 64.771,57.318 	"/>
	<polygon fill="#FFFFFF" points="70.628,58.026 69.761,58.026 66.497,52.953 66.497,58.026 65.722,58.026 65.722,51.727 
		66.578,51.727 69.863,56.837 69.863,51.727 70.628,51.727 	"/>
	<polygon fill="#FFFFFF" points="76.764,52.436 74.71,52.436 74.71,58.026 73.884,58.026 73.884,52.436 71.826,52.436 
		71.826,51.727 76.764,51.727 	"/>
	<rect x="12.174" y="38.655" fill="#FFFFFF" width="1.834" height="11.336"/>
	<polygon fill="#FFFFFF" points="25.946,49.988 24.292,49.988 18.738,41.657 18.738,49.988 17.049,49.988 17.049,38.655 
		18.714,38.655 24.27,46.988 24.27,38.655 25.946,38.655 	"/>
	<path fill="#FFFFFF" d="M37.447,46.625c-0.177,2.085-1.594,3.207-4.254,3.366c-2.886-0.058-4.459-1.37-4.725-3.952l1.529-0.282
		c0.236,1.82,1.224,2.722,2.971,2.722h0.134c0.033,0,0.085-0.004,0.132-0.006H33.23c0.8-0.072,1.417-0.267,1.853-0.573
		c0.43-0.315,0.676-0.705,0.733-1.186c0.026-0.872-0.931-1.499-2.879-1.893c-2.714-0.561-4.055-1.646-4.024-3.247
		c0.157-2.058,1.499-3.128,4.024-3.219c2.614,0.091,4.004,1.292,4.158,3.612l-1.569,0.126c-0.093-0.693-0.372-1.225-0.831-1.595
		c-0.464-0.365-1.058-0.581-1.779-0.632c-0.693,0.028-1.243,0.192-1.64,0.479c-0.397,0.285-0.638,0.675-0.718,1.17
		c0.008,0.283,0.096,0.516,0.271,0.703c0.173,0.192,0.429,0.354,0.771,0.479c0.385,0.135,0.801,0.257,1.237,0.37
		c0.444,0.111,0.919,0.214,1.424,0.313c2.128,0.608,3.192,1.69,3.187,3.23V46.625z"/>
	<path fill="#FFFFFF" d="M47.635,39.5c-0.67-0.552-1.666-0.824-2.981-0.824h-4.606v11.315h1.698v-4.561h3.342
		c0.519-0.002,0.995-0.083,1.435-0.232c0.441-0.156,0.814-0.382,1.124-0.681c0.314-0.29,0.558-0.653,0.73-1.082
		c0.177-0.428,0.263-0.922,0.263-1.479C48.639,40.866,48.308,40.048,47.635,39.5 M46.682,42.773
		c-0.105,0.226-0.248,0.419-0.428,0.571c-0.182,0.159-0.395,0.277-0.635,0.361c-0.25,0.083-0.511,0.131-0.794,0.151h-3.015v-3.551
		h3.492c0.286,0.081,0.53,0.174,0.724,0.269c0.203,0.104,0.357,0.216,0.479,0.351c0.115,0.128,0.199,0.282,0.255,0.449
		c0.048,0.173,0.076,0.373,0.076,0.605C46.836,42.279,46.782,42.543,46.682,42.773"/>
	<rect x="51.283" y="38.655" fill="#FFFFFF" width="1.831" height="11.336"/>
	<path fill="#FFFFFF" d="M65.776,49.588c-0.107-0.178-0.237-0.375-0.371-0.603c-0.142-0.226-0.296-0.471-0.456-0.728
		c-0.161-0.265-0.32-0.521-0.483-0.795c-0.216-0.344-0.401-0.636-0.575-0.886c-0.165-0.239-0.325-0.458-0.486-0.645
		c-0.166-0.183-0.334-0.358-0.513-0.508c-0.178-0.152-0.38-0.302-0.614-0.451l0.047-0.017c0.031-0.012,0.098-0.033,0.179-0.064
		c0.085-0.033,0.218-0.078,0.396-0.138c0.751-0.261,1.299-0.626,1.643-1.094c0.34-0.464,0.509-1.057,0.509-1.783
		c0-0.489-0.083-0.939-0.245-1.332c-0.163-0.402-0.394-0.738-0.681-1.02c-0.299-0.28-0.646-0.494-1.055-0.645
		c-0.405-0.148-0.86-0.227-1.348-0.227H55.98v11.336h1.713V45.13h2.12c0.123,0,0.252,0.019,0.382,0.062
		c0.133,0.034,0.272,0.116,0.418,0.216c0.146,0.105,0.302,0.249,0.472,0.428c0.171,0.181,0.361,0.406,0.57,0.688
		c0.093,0.123,0.206,0.28,0.325,0.468c0.131,0.192,0.266,0.396,0.415,0.614c0.14,0.221,0.292,0.446,0.444,0.677
		c0.149,0.235,0.292,0.46,0.425,0.681c0.141,0.21,0.259,0.414,0.375,0.594c0.113,0.181,0.196,0.325,0.262,0.435h2.136
		C65.975,49.896,65.886,49.763,65.776,49.588 M61.224,43.547h-3.463v-3.376h3.818c0.354,0.119,0.636,0.232,0.846,0.328
		c0.221,0.102,0.387,0.214,0.501,0.339c0.113,0.122,0.189,0.271,0.229,0.431c0.036,0.166,0.06,0.367,0.06,0.609
		c0,0.234-0.053,0.453-0.164,0.653c-0.102,0.204-0.249,0.386-0.427,0.533c-0.178,0.154-0.392,0.269-0.637,0.356
		C61.748,43.509,61.492,43.547,61.224,43.547"/>
	<polygon fill="#FFFFFF" points="76.657,48.473 70.184,48.473 70.184,44.949 76.223,44.949 76.223,43.429 70.184,43.429 
		70.184,40.171 76.652,40.171 76.652,38.655 68.481,38.655 68.481,49.991 76.657,49.991 	"/>
</g>
</svg>
