<?xml version="1.0" encoding="utf-8"?>
<!-- Generator: Adobe Illustrator 21.0.0, SVG Export Plug-In . SVG Version: 6.00 Build 0)  -->
<svg version="1.1" id="Text" xmlns="http://www.w3.org/2000/svg" xmlns:xlink="http://www.w3.org/1999/xlink" x="0px" y="0px"
	 width="229.3px" height="263.8px" viewBox="0 0 229.3 263.8" style="enable-background:new 0 0 229.3 263.8;" xml:space="preserve"
	>
<style type="text/css">
	.st0{enable-background:new    ;}
	.st1{fill:#005EAB;}
</style>
<g class="st0">
	<path d="M3.1,5.9c0-2.7-0.1-3.3-1.7-3.5L0.2,2.3C-0.1,2,0,1.5,0.2,1.4c1.9-0.2,4.3-0.3,7.6-0.3c2.2,0,4.4,0.2,6,1
		c1.5,0.8,2.7,2.2,2.7,4.5c0,2.6-1.5,3.9-3.6,4.9c0,0.4,0.3,0.5,0.7,0.5c1.9,0.4,4.8,2.2,4.8,6c0,4.2-3.1,7-9.4,7
		c-1,0-2.8-0.1-4.3-0.1c-1.6,0-2.8,0.1-4.1,0.1c-0.2-0.1-0.3-0.7-0.1-0.9l0.6-0.1c1.9-0.3,2-0.7,2-4.5V5.9z M6,10.7c0,1,0,1.1,1.8,1
		c3.6-0.1,5.6-1.2,5.6-4.6c0-3.5-2.6-4.9-5.3-4.9c-0.8,0-1.3,0.1-1.6,0.2C6.1,2.5,6,2.7,6,3.3V10.7z M6,19c0,1.3,0.1,3.1,0.7,3.9
		c0.7,0.8,1.7,1,2.8,1c3.2,0,5.6-1.4,5.6-5c0-2.8-1.4-6.2-7.1-6.2C6.1,12.7,6,13,6,13.7V19z"/>
	<path d="M21.7,13.3c0-7.2,5.3-12.7,12.6-12.7c8.2,0,12.3,6,12.3,12.4c0,7.3-5.5,12.6-12.3,12.6C26.4,25.5,21.7,19.8,21.7,13.3z
		 M43.1,14.1c0-5.9-2.6-12.4-9.4-12.4c-3.7,0-8.5,2.6-8.5,10.4c0,5.3,2.6,12.2,9.5,12.2C39,24.4,43.1,21.2,43.1,14.1z"/>
	<path d="M52.8,6.6c0-3.4-0.1-4-1.6-4.2l-1.1-0.1c-0.2-0.2-0.2-0.8,0-0.9c2-0.2,4.4-0.3,7.9-0.3c2.2,0,4.3,0.2,5.9,1.1
		c1.7,0.9,2.9,2.5,2.9,5c0,3.4-2.7,5.3-4.4,6c-0.2,0.2,0,0.6,0.2,0.9c2.8,4.6,4.7,7.5,7.1,9.6c0.6,0.5,1.5,0.9,2.4,1
		c0.2,0.1,0.2,0.4,0,0.5c-0.3,0.1-0.9,0.2-1.6,0.2c-3,0-4.8-0.9-7.3-4.5c-0.9-1.3-2.4-3.8-3.5-5.4c-0.5-0.8-1.1-1.2-2.5-1.2
		c-1.6,0-1.7,0-1.7,0.8v4.5c0,3.8,0.1,4.2,2.1,4.5l0.7,0.1c0.2,0.2,0.1,0.8-0.1,0.9C56.9,25,55.7,25,54.3,25c-1.5,0-2.8,0-4.4,0.1
		c-0.2-0.1-0.3-0.6-0.1-0.9l0.9-0.1c2.1-0.3,2.1-0.7,2.1-4.5V6.6z M55.7,11.8c0,0.6,0,1,0.1,1.2c0.1,0.1,0.6,0.2,2.4,0.2
		c1.3,0,2.6-0.1,3.7-0.9c1-0.8,1.8-2,1.8-4.5c0-2.8-1.7-5.5-5.7-5.5c-2.2,0-2.3,0.1-2.3,1.2V11.8z"/>
	<path d="M94.8,18.8c0,1.1,0,5.4,0.1,6.3c-0.1,0.2-0.3,0.4-0.7,0.4c-0.4-0.6-1.5-1.9-4.5-5.4l-8.2-9.5c-1-1.1-3.4-4.1-4.1-4.9h-0.1
		c-0.1,0.4-0.2,1.3-0.2,2.3v7.9c0,1.7,0,6.4,0.6,7.5c0.2,0.4,0.9,0.6,1.8,0.7l1.1,0.1c0.2,0.3,0.2,0.7-0.1,0.9
		C78.9,25,77.7,25,76.4,25c-1.5,0-2.4,0-3.7,0.1c-0.2-0.2-0.3-0.7-0.1-0.9l1-0.1c0.8-0.1,1.4-0.3,1.6-0.7c0.5-1.3,0.5-5.7,0.5-7.4
		V5.5c0-1,0-1.8-0.8-2.6c-0.5-0.5-1.3-0.8-2.2-0.9L72,2c-0.2-0.2-0.2-0.8,0.1-0.9c1.5,0.1,3.4,0.1,4,0.1c0.6,0,1.2,0,1.6-0.1
		c0.7,1.8,4.9,6.6,6.1,7.9l3.4,3.9c2.4,2.8,4.2,4.8,5.9,6.5h0.1c0.1-0.2,0.1-0.8,0.1-1.5v-7.7c0-1.7,0-6.4-0.7-7.5
		c-0.2-0.3-0.8-0.5-2.2-0.7L89.8,2c-0.2-0.2-0.2-0.8,0.1-0.9c1.6,0.1,2.8,0.1,4.2,0.1c1.5,0,2.4,0,3.7-0.1C98,1.3,98,1.8,97.8,2
		L97.3,2c-1.1,0.2-1.8,0.5-2,0.8c-0.6,1.3-0.5,5.8-0.5,7.4V18.8z"/>
	<path d="M119.3,19.6c0,3.8,0.1,4.3,2.1,4.5l1.1,0.1c0.2,0.1,0.1,0.8-0.1,0.9c-2-0.1-3.2-0.1-4.6-0.1c-1.4,0-2.7,0-4.9,0.1
		c-0.2-0.1-0.3-0.7,0-0.9l1.3-0.1c2-0.2,2.2-0.7,2.2-4.5V3.5c0-1.1,0-1.2-1.1-1.2h-2c-1.5,0-3.5,0.1-4.4,0.9
		c-0.9,0.8-1.2,1.6-1.6,2.5c-0.3,0.2-0.8,0-0.9-0.3c0.6-1.6,1.1-3.9,1.3-5.4c0.1-0.1,0.6-0.1,0.7,0c0.2,1.2,1.4,1.1,3,1.1h14.4
		c1.9,0,2.2-0.1,2.8-1c0.2-0.1,0.6,0,0.6,0.1c-0.4,1.5-0.6,4.4-0.5,5.5C128.6,6,128,6,127.8,5.8c-0.1-0.9-0.4-2.2-0.9-2.6
		c-0.8-0.6-2.2-0.9-4.1-0.9h-2.5c-1.1,0-1,0-1,1.2V19.6z"/>
	<path d="M130.1,13.3c0-7.2,5.3-12.7,12.6-12.7c8.2,0,12.3,6,12.3,12.4c0,7.3-5.5,12.6-12.3,12.6C134.9,25.5,130.1,19.8,130.1,13.3z
		 M151.5,14.1c0-5.9-2.6-12.4-9.4-12.4c-3.7,0-8.5,2.6-8.5,10.4c0,5.3,2.6,12.2,9.5,12.2C147.5,24.4,151.5,21.2,151.5,14.1z"/>
</g>
<g class="st0">
	<path d="M6.5,68.7c-3,0-4.9-0.9-5.5-1.3c-0.4-0.8-0.9-3.3-1-5c0.2-0.3,0.7-0.3,0.9-0.1c0.5,1.8,2,5.4,6.1,5.4c3,0,4.4-2,4.4-4.1
		c0-1.6-0.3-3.3-2.9-5l-3.4-2.2C3.3,55,1.3,53,1.3,50c0-3.4,2.6-6.2,7.2-6.2c1.1,0,2.4,0.2,3.3,0.5c0.5,0.1,1,0.2,1.2,0.2
		c0.3,0.9,0.6,2.9,0.6,4.4c-0.1,0.2-0.7,0.3-0.9,0.1c-0.5-1.7-1.4-4.1-4.8-4.1c-3.5,0-4.2,2.3-4.2,4c0,2.1,1.7,3.6,3,4.4l2.8,1.8
		c2.2,1.4,4.4,3.5,4.4,6.9C14.1,66,11.1,68.7,6.5,68.7z"/>
	<path d="M29,62.8c0,3.8,0.1,4.3,2.1,4.5l1.1,0.1c0.2,0.1,0.1,0.8-0.1,0.9c-2-0.1-3.2-0.1-4.6-0.1c-1.4,0-2.7,0-4.9,0.1
		c-0.2-0.1-0.3-0.7,0-0.9l1.3-0.1c2-0.2,2.2-0.7,2.2-4.5V46.7c0-1.1,0-1.2-1.1-1.2h-2c-1.5,0-3.5,0.1-4.4,0.9
		c-0.9,0.8-1.2,1.6-1.6,2.5c-0.3,0.2-0.8,0-0.9-0.3c0.6-1.6,1.1-3.9,1.3-5.4c0.1-0.1,0.6-0.1,0.7,0c0.2,1.2,1.4,1.1,3,1.1h14.4
		c1.9,0,2.2-0.1,2.8-1c0.2-0.1,0.6,0,0.6,0.1c-0.4,1.5-0.6,4.4-0.5,5.5c-0.1,0.3-0.7,0.3-0.9,0.1c-0.1-0.9-0.4-2.2-0.9-2.6
		c-0.8-0.6-2.2-0.9-4.1-0.9H30c-1.1,0-1,0-1,1.2V62.8z"/>
	<path d="M51.5,59.8c-0.2-0.8-0.4-0.9-1.5-0.9h-5.4c-0.9,0-1.1,0.1-1.3,0.9l-1.2,3.8c-0.5,1.6-0.8,2.6-0.8,3c0,0.4,0.2,0.6,1,0.7
		l1.2,0.1c0.2,0.2,0.2,0.8-0.1,0.9c-0.9-0.1-2-0.1-3.7-0.1c-1.2,0-2.4,0.1-3.4,0.1c-0.2-0.1-0.3-0.7-0.1-0.9l1.2-0.1
		c0.9-0.1,1.6-0.5,2.1-1.8c0.6-1.7,1.6-4,3.1-8l3.6-9.7c0.5-1.3,0.7-2,0.6-2.6c0.9-0.3,1.5-0.9,1.8-1.4c0.2,0,0.5,0.1,0.5,0.3
		c0.5,1.6,1,3.2,1.6,4.8l4.9,14.5c1,3.1,1.5,3.6,3,3.8l1,0.1c0.2,0.2,0.2,0.8,0,0.9c-1.5-0.1-2.7-0.1-4.3-0.1
		c-1.7,0-3.1,0.1-4.1,0.1c-0.3-0.1-0.3-0.7-0.1-0.9l1-0.1c0.7-0.1,1.2-0.3,1.2-0.6c0-0.4-0.2-1-0.5-1.9L51.5,59.8z M44.4,56.6
		c-0.3,0.8-0.2,0.9,0.7,0.9h4.4c1,0,1.1-0.1,0.8-1.1l-1.9-5.9c-0.3-0.9-0.6-1.8-0.8-2.3h-0.1c-0.1,0.2-0.5,1-0.9,2.1L44.4,56.6z"/>
	<path d="M82.8,62c0,1.1,0,5.4,0.1,6.3c-0.1,0.2-0.3,0.4-0.7,0.4c-0.4-0.6-1.5-1.9-4.5-5.4l-8.2-9.5c-1-1.1-3.4-4.1-4.1-4.9h-0.1
		c-0.1,0.4-0.2,1.3-0.2,2.3v7.9c0,1.7,0,6.4,0.6,7.5c0.2,0.4,0.9,0.6,1.8,0.7l1.1,0.1c0.2,0.3,0.2,0.7-0.1,0.9
		c-1.6-0.1-2.8-0.1-4.2-0.1c-1.5,0-2.4,0-3.7,0.1c-0.2-0.2-0.3-0.7-0.1-0.9l1-0.1c0.8-0.1,1.4-0.3,1.6-0.7c0.5-1.3,0.5-5.7,0.5-7.4
		V48.7c0-1,0-1.8-0.8-2.6c-0.5-0.5-1.3-0.8-2.2-0.9L60,45.2c-0.2-0.2-0.2-0.8,0.1-0.9c1.5,0.1,3.4,0.1,4,0.1c0.6,0,1.2,0,1.6-0.1
		c0.7,1.8,4.9,6.6,6.1,7.9l3.4,3.9c2.4,2.8,4.2,4.8,5.9,6.5h0.1c0.1-0.2,0.1-0.8,0.1-1.5v-7.7c0-1.7,0-6.4-0.7-7.5
		c-0.2-0.3-0.8-0.5-2.2-0.7l-0.6-0.1c-0.2-0.2-0.2-0.8,0.1-0.9c1.6,0.1,2.8,0.1,4.2,0.1c1.5,0,2.4,0,3.7-0.1
		c0.3,0.2,0.3,0.7,0.1,0.9l-0.5,0.1c-1.1,0.2-1.8,0.5-2,0.8c-0.6,1.3-0.5,5.8-0.5,7.4V62z"/>
	<path d="M91.5,49.1c0-2.5-0.2-3.3-1.7-3.5L89,45.5c-0.3-0.2-0.3-0.8,0-0.9c3-0.2,5.9-0.3,8.9-0.3c3,0,5.5,0.2,7.8,1.1
		c4.8,1.8,7.2,5.9,7.2,10.6c0,4.6-2.2,8.5-6.2,10.7c-2.3,1.3-5.2,1.7-8,1.7c-2.3,0-4.5-0.3-5.8-0.3c-1.5,0-2.8,0-4.4,0.1
		c-0.2-0.1-0.3-0.7-0.1-0.9l0.8-0.1c2.1-0.3,2.1-0.7,2.1-4.5V49.1z M94.4,61.9c0,1.9,0.1,3.1,0.7,3.9c0.8,1.1,2.1,1.5,4.4,1.5
		c6.9,0,10-4.6,10-11.3c0-4-1.9-10.7-11.2-10.7c-2.1,0-3.2,0.3-3.5,0.5c-0.3,0.2-0.4,1.1-0.4,2.7V61.9z"/>
	<path d="M125.1,56.5c0-7.2,5.3-12.7,12.6-12.7c8.2,0,12.3,6,12.3,12.4c0,7.3-5.5,12.6-12.3,12.6C129.9,68.7,125.1,63,125.1,56.5z
		 M146.5,57.3c0-5.9-2.6-12.4-9.4-12.4c-3.7,0-8.5,2.6-8.5,10.4c0,5.3,2.6,12.2,9.5,12.2C142.5,67.6,146.5,64.4,146.5,57.3z"/>
	<path d="M173.2,53.4c0-2.2-0.1-6.4-0.7-7.5c-0.2-0.4-0.9-0.7-1.8-0.8l-0.9-0.1c-0.2-0.3-0.1-0.7,0.1-0.9c1.3,0.1,2.7,0.1,4,0.1
		c1.5,0,2.4,0,3.7-0.1c0.3,0.2,0.2,0.6,0.1,0.9l-0.9,0.1c-0.9,0.1-1.6,0.4-1.8,0.9c-0.5,1.2-0.5,5.3-0.5,7.3v4.1
		c0,3.1-0.5,6.4-2.5,8.6c-1.5,1.7-4.2,2.6-6.8,2.6c-2.4,0-4.9-0.5-6.6-2c-1.9-1.6-2.8-4.2-2.8-8.5v-8.5c0-3.7-0.1-4.4-2.1-4.5
		l-0.9-0.1c-0.2-0.1-0.1-0.8,0.1-0.9c1.8,0.1,3,0.1,4.4,0.1c1.5,0,2.6,0,4.4-0.1c0.2,0.1,0.3,0.7,0.1,0.9l-0.9,0.1
		c-2.1,0.2-2.1,0.8-2.1,4.5v7.8c0,5.8,1.8,9.6,7.2,9.6c5.1,0,7.1-4.1,7.1-9.6V53.4z"/>
	<path d="M191.2,62.8c0,3.8,0.1,4.3,2.1,4.5l1.1,0.1c0.2,0.1,0.1,0.8-0.1,0.9c-2-0.1-3.2-0.1-4.6-0.1c-1.4,0-2.7,0-4.9,0.1
		c-0.2-0.1-0.3-0.7,0-0.9l1.3-0.1c2-0.2,2.2-0.7,2.2-4.5V46.7c0-1.1,0-1.2-1.1-1.2h-2c-1.5,0-3.5,0.1-4.4,0.9
		c-0.9,0.8-1.2,1.6-1.6,2.5c-0.3,0.2-0.8,0-0.9-0.3c0.6-1.6,1.1-3.9,1.3-5.4c0.1-0.1,0.6-0.1,0.7,0c0.2,1.2,1.4,1.1,3,1.1h14.4
		c1.9,0,2.2-0.1,2.8-1c0.2-0.1,0.6,0,0.6,0.1c-0.4,1.5-0.6,4.4-0.5,5.5c-0.1,0.3-0.7,0.3-0.9,0.1c-0.1-0.9-0.4-2.2-0.9-2.6
		c-0.8-0.6-2.2-0.9-4.1-0.9h-2.5c-1.1,0-1,0-1,1.2V62.8z"/>
</g>
<g class="st0">
	<path d="M5.2,90.1c0-0.5,0-0.5-0.5-0.5h-1c-0.7,0-1.6,0-1.9,0.4c-0.4,0.4-0.5,0.7-0.7,1.1c-0.1,0.1-0.3,0-0.4-0.1
		c0.3-0.7,0.5-1.7,0.6-2.4c0,0,0.3,0,0.3,0c0.1,0.5,0.6,0.5,1.3,0.5h6.6c0.9,0,1.1-0.1,1.2-0.2v-0.2l1.1-0.4c0.1,0,0.1,0,0.2,0.1
		c0,0.5,0,1.3,0,2v3.4c0,0.1,0,0.3,0.1,0.3c0.6-0.4,1.3-0.8,2.1-0.8c1.5,0,2,0.9,2,2.1v2.7c0,1.2,0,1.3,0.6,1.4l0.4,0
		c0.1,0.1,0.1,0.4,0,0.4c-0.6,0-1,0-1.6,0c-0.6,0-1,0-1.5,0c-0.1,0-0.1-0.3,0-0.4l0.3,0c0.6-0.1,0.6-0.2,0.6-1.4v-2.3
		c0-1-0.5-1.7-1.5-1.7c-0.5,0-1,0.2-1.2,0.4c-0.3,0.2-0.3,0.3-0.3,0.9v2.7c0,1.2,0,1.3,0.6,1.4l0.3,0c0.1,0.1,0.1,0.4,0,0.4
		c-0.5,0-0.9,0-1.5,0c-0.6,0-1,0-1.6,0c-0.1,0-0.1-0.3,0-0.4l0.4,0c0.6-0.1,0.6-0.2,0.6-1.4v-7.1c0-1-0.4-1.1-2.2-1.1H7
		c-0.5,0-0.5,0-0.5,0.5v7.1c0,1.7,0,1.9,1,2l0.5,0c0.1,0.1,0.1,0.4,0,0.4c-0.9,0-1.4,0-2.1,0c-0.6,0-1.2,0-2.2,0
		c-0.1,0-0.1-0.3,0-0.4l0.6,0c0.9-0.1,1-0.3,1-2V90.1z"/>
	<path d="M19.5,95.6c-0.4,0-0.4,0-0.4,0.4c0,1.6,0.9,3,2.6,3c0.5,0,1-0.2,1.5-0.8c0.2,0,0.3,0,0.3,0.2c-0.5,1.1-1.7,1.5-2.5,1.5
		c-1,0-1.8-0.4-2.3-1.1c-0.5-0.6-0.7-1.4-0.7-2.1c0-2,1.3-3.6,3.2-3.6c1.4,0,2.2,0.9,2.2,1.9c0,0.2,0,0.4-0.1,0.4
		c0,0.1-0.3,0.1-0.9,0.1H19.5z M20.5,95.1c1.2,0,1.5-0.1,1.6-0.2c0,0,0.1-0.1,0.1-0.3c0-0.4-0.3-1-1.2-1c-0.9,0-1.7,0.9-1.8,1.4
		c0,0,0,0.1,0.1,0.1H20.5z"/>
	<path d="M33.8,95.4c0.4,0.8,0.7,1.5,1.1,2.2h0c0.4-0.8,0.8-1.6,1.2-2.4l1.5-3.1c0.7-1.5,1.2-2.3,1.2-3.1c0.5,0,0.9,0,1.2,0
		c0.4,0,0.9,0,1.4,0c0.1,0.1,0.1,0.3,0,0.4l-0.3,0c-1,0.1-1.1,0.4-1.1,1.5c0,1.7,0,4.7,0.2,7c0,0.8,0,1.2,0.8,1.3l0.5,0
		c0.1,0.1,0.1,0.3,0,0.4c-0.6,0-1.3,0-1.9,0c-0.6,0-1.3,0-1.9,0c-0.1-0.1-0.1-0.3,0-0.4l0.5,0c0.8-0.1,0.8-0.3,0.8-1.4l0-6.7h0
		c-0.1,0.2-0.7,1.5-1,2.1l-1.4,2.8c-0.7,1.4-1.4,2.9-1.7,3.6c0,0-0.1,0.1-0.2,0.1c0,0-0.1,0-0.1-0.1c-0.3-0.8-1-2.4-1.4-3.2
		l-1.4-3.1c-0.3-0.7-0.7-1.6-1-2.3h0c-0.1,1-0.1,1.9-0.2,2.8c0,1-0.1,2.4-0.1,3.8c0,1.2,0.1,1.4,0.7,1.5l0.6,0
		c0.1,0.1,0.1,0.4,0,0.4c-0.5,0-1.2,0-1.8,0c-0.5,0-1.1,0-1.6,0c-0.1-0.1-0.1-0.3,0-0.4l0.3,0c0.7-0.1,0.9-0.2,1-1.3
		c0.1-1.1,0.2-1.9,0.3-3.5c0.1-1.3,0.1-2.7,0.2-3.6c0-1-0.1-1.2-1.1-1.4l-0.3,0c-0.1-0.1-0.1-0.3,0.1-0.4c0.5,0,0.9,0,1.3,0
		c0.4,0,0.8,0,1.3,0c-0.1,0.6,0.3,1.6,0.8,2.6L33.8,95.4z"/>
	<path d="M45.7,96.4c0.2-0.1,0.3-0.2,0.3-0.5l0-0.7c0-0.6-0.2-1.4-1.2-1.4c-0.4,0-1,0.2-1,0.7c0,0.3,0,0.4-0.2,0.5
		c-0.2,0.2-0.7,0.3-0.9,0.3c-0.1,0-0.2-0.1-0.2-0.2c0-0.8,1.8-2,2.9-2c1.1,0,1.7,0.7,1.6,1.9L47,97.8c0,0.7,0.1,1.4,0.7,1.4
		c0.2,0,0.3,0,0.4-0.1c0.1,0,0.2-0.1,0.2-0.1c0.1,0,0.1,0.1,0.1,0.2c0,0.1-0.6,0.7-1.3,0.7c-0.4,0-0.8-0.1-1-0.5
		c-0.1-0.1-0.2-0.2-0.3-0.2c-0.1,0-0.3,0.1-0.6,0.3c-0.3,0.2-0.7,0.4-1.1,0.4c-0.5,0-0.8-0.1-1.1-0.4c-0.3-0.3-0.5-0.7-0.5-1.1
		c0-0.6,0.3-1,1.3-1.4L45.7,96.4z M44.7,99.2c0.3,0,0.8-0.2,1-0.4c0.2-0.2,0.2-0.4,0.2-0.8l0-0.9c0-0.2-0.1-0.2-0.2-0.2
		c-0.1,0-0.4,0.1-0.6,0.2c-0.9,0.3-1.4,0.6-1.4,1.2C43.7,98.5,43.9,99.2,44.7,99.2z"/>
	<path d="M49.9,95.1c0-0.6,0-0.7-0.4-1L49.3,94c-0.1-0.1-0.1-0.2,0-0.3c0.4-0.1,1.2-0.5,1.6-0.8C51,93,51,93,51,93V94
		c0,0.1,0,0.1,0,0.1c0.6-0.5,1.2-1,1.7-1c0.4,0,0.7,0.3,0.7,0.6c0,0.5-0.4,0.7-0.7,0.7c-0.2,0-0.2,0-0.3-0.1
		c-0.2-0.2-0.5-0.3-0.7-0.3c-0.3,0-0.4,0.1-0.6,0.3c-0.2,0.2-0.2,0.7-0.2,1.2v2.2c0,1.2,0,1.3,0.6,1.4l0.6,0c0.1,0.1,0.1,0.4,0,0.4
		c-0.7,0-1.2,0-1.8,0c-0.6,0-1,0-1.5,0c-0.1,0-0.1-0.3,0-0.4l0.3,0c0.6-0.1,0.6-0.2,0.6-1.4V95.1z"/>
	<path d="M54.9,90.7c0-0.9,0-1-0.5-1.3l-0.2-0.1c-0.1,0-0.1-0.3,0-0.3c0.4-0.1,1.1-0.4,1.7-0.7c0.1,0,0.1,0,0.2,0.1c0,0.5,0,1.3,0,2
		v5.5c0,0.2,0,0.2,0.3,0.2c0.3,0,0.6-0.2,1.1-0.6l0.6-0.7c0.4-0.5,0.6-0.7,0.6-0.7s-0.1-0.1-0.3-0.2l-0.4,0c-0.1,0-0.1-0.4,0-0.4
		h0.4c0.7,0,1.6,0,2.5-0.1c0.1,0,0.1,0.3,0,0.4l-0.5,0.1c-0.3,0.1-0.6,0.2-1,0.6c-0.6,0.5-1.2,1.1-1.4,1.3c-0.2,0.2-0.2,0.3-0.1,0.4
		c0.3,0.4,0.5,0.7,1.1,1.3c0.6,0.7,1.2,1.3,1.5,1.6c0.2,0.2,0.5,0.3,0.8,0.4l0.2,0c0.1,0.1,0.1,0.4,0,0.4c-0.5,0-1,0-1.5,0
		c-0.6,0-1.2,0-1.6,0c-0.1-0.1-0.1-0.3,0-0.4l0.3,0c0.2,0,0.4-0.1,0.4-0.2c0-0.1-0.1-0.2-0.3-0.4l-1.7-2c-0.1-0.2-0.3-0.2-0.5-0.2
		c-0.3,0-0.3,0-0.3,0.5v0.9c0,1.2,0,1.3,0.6,1.4l0.4,0c0.1,0.1,0.1,0.4,0,0.4c-0.5,0-1,0-1.5,0c-0.6,0-1,0-1.5,0
		c-0.1,0-0.1-0.3,0-0.4l0.3,0c0.6-0.1,0.6-0.2,0.6-1.4V90.7z"/>
	<path d="M64.9,96.4c0.2-0.1,0.3-0.2,0.3-0.5l0-0.7c0-0.6-0.2-1.4-1.2-1.4c-0.4,0-1,0.2-1,0.7c0,0.3,0,0.4-0.2,0.5
		c-0.2,0.2-0.7,0.3-0.9,0.3c-0.1,0-0.2-0.1-0.2-0.2c0-0.8,1.8-2,2.9-2c1.1,0,1.7,0.7,1.6,1.9l-0.1,2.8c0,0.7,0.1,1.4,0.7,1.4
		c0.2,0,0.3,0,0.4-0.1c0.1,0,0.2-0.1,0.2-0.1c0.1,0,0.1,0.1,0.1,0.2c0,0.1-0.6,0.7-1.3,0.7c-0.4,0-0.8-0.1-1-0.5
		c-0.1-0.1-0.2-0.2-0.3-0.2c-0.1,0-0.3,0.1-0.6,0.3c-0.3,0.2-0.7,0.4-1.1,0.4c-0.5,0-0.8-0.1-1.1-0.4c-0.3-0.3-0.5-0.7-0.5-1.1
		c0-0.6,0.3-1,1.3-1.4L64.9,96.4z M63.9,99.2c0.3,0,0.8-0.2,1-0.4c0.2-0.2,0.2-0.4,0.2-0.8l0-0.9c0-0.2-0.1-0.2-0.2-0.2
		c-0.1,0-0.4,0.1-0.6,0.2c-0.9,0.3-1.4,0.6-1.4,1.2C62.9,98.5,63.1,99.2,63.9,99.2z"/>
	<path d="M68.7,90.7c0-0.9,0-1-0.5-1.3l-0.2-0.1c-0.1,0-0.1-0.3,0-0.3c0.4-0.1,1.1-0.4,1.7-0.7c0.1,0,0.1,0,0.2,0.1
		c0,0.6-0.1,1.3-0.1,2v3c0,0.3,0.1,0.3,0.2,0.3c0.4-0.2,1-0.5,1.8-0.5c1.8,0,3,1.4,3,3.1c0,2.1-1.5,3.6-3.6,3.6
		c-0.6,0-1-0.1-1.3-0.2c-0.3-0.1-0.5-0.2-0.7-0.2c-0.1,0-0.3,0.1-0.3,0.2c0,0,0,0-0.1,0c-0.1,0-0.1,0-0.2-0.1c0-0.2,0-0.5,0-1.4
		V90.7z M69.9,97.5c0,0.6,0.1,1.1,0.4,1.4c0.3,0.3,0.7,0.5,1.2,0.5c1.5,0,2.1-1.3,2.1-2.7c0-1.6-0.8-2.9-2.4-2.9
		c-0.5,0-0.9,0.1-1.1,0.3c-0.2,0.1-0.2,0.3-0.2,0.9V97.5z"/>
	<path d="M78,97.9c0,1.2,0,1.3,0.6,1.4l0.4,0c0.1,0.1,0.1,0.4,0,0.4c-0.5,0-1,0-1.5,0c-0.6,0-1,0-1.5,0c-0.1,0-0.1-0.3,0-0.4l0.4,0
		c0.6-0.1,0.6-0.2,0.6-1.4v-7.2c0-0.9,0-1-0.5-1.3l-0.2-0.1c-0.1,0-0.1-0.3,0-0.3c0.4-0.1,1.1-0.4,1.7-0.7c0.1,0,0.1,0,0.2,0.1
		c0,0.5,0,1.3,0,2V97.9z"/>
	<path d="M81.4,95.6c-0.4,0-0.4,0-0.4,0.4c0,1.6,0.9,3,2.6,3c0.5,0,1-0.2,1.5-0.8c0.2,0,0.3,0,0.3,0.2c-0.5,1.1-1.7,1.5-2.5,1.5
		c-1,0-1.8-0.4-2.3-1.1c-0.5-0.6-0.7-1.4-0.7-2.1c0-2,1.3-3.6,3.2-3.6c1.4,0,2.2,0.9,2.2,1.9c0,0.2,0,0.4-0.1,0.4
		c0,0.1-0.3,0.1-0.9,0.1H81.4z M82.4,95.1c1.2,0,1.5-0.1,1.6-0.2c0,0,0.1-0.1,0.1-0.3c0-0.4-0.3-1-1.2-1c-0.9,0-1.7,0.9-1.8,1.4
		c0,0,0,0.1,0.1,0.1H82.4z"/>
</g>
<g class="st0">
	<path d="M2.6,110.7c0-1.7,0-1.9-1-2l-0.4,0c-0.1-0.1-0.1-0.4,0-0.4c0.9,0,1.4,0,2.1,0c0.6,0,1.2,0,1.9,0c0.1,0,0.1,0.3,0,0.4
		l-0.4,0c-0.9,0.1-1,0.3-1,2v5.6c0,1,0,1.4,0.3,1.7c0.2,0.2,0.5,0.4,1.7,0.4c1.3,0,1.7-0.1,1.9-0.2c0.3-0.2,0.7-0.8,1-1.6
		c0.1-0.1,0.4,0,0.4,0.1c0,0.2-0.4,1.8-0.7,2.2c-0.8,0-2.3,0-3.9,0H3.2c-0.7,0-1.2,0-2.1,0c-0.1,0-0.1-0.3,0-0.4l0.5,0
		c0.9-0.1,1-0.3,1-2V110.7z"/>
	<path d="M11.7,116.5c0,1.1,0.3,1.8,1.5,1.8c0.4,0,0.9-0.2,1.3-0.5c0.2-0.2,0.3-0.4,0.3-0.9v-2.6c0-1-0.1-1.1-0.6-1.3L14,113
		c-0.1-0.1-0.1-0.3,0-0.4c0.6,0,1.5-0.1,1.9-0.3c0.1,0,0.1,0,0.1,0.1c0,0.3,0,0.8,0,1.4v2.7c0,1.3,0,1.7,0.5,1.7
		c0.2,0,0.4,0,0.6-0.1c0.1,0.1,0.1,0.4,0,0.5c-0.6,0.1-1.5,0.3-2.1,0.6c-0.1,0-0.2,0-0.2-0.1v-0.7c0-0.1,0-0.2-0.1-0.2
		c-0.5,0.3-1.3,0.8-2.2,0.8c-1.4,0-1.9-0.7-1.9-2v-2.7c0-1,0-1.2-0.5-1.4L9.9,113c-0.1-0.1-0.1-0.3,0-0.4c0.7,0,1.3-0.2,1.7-0.3
		c0.1,0,0.1,0,0.2,0.1c0,0.3,0,0.6,0,1.4V116.5z"/>
	<path d="M18.7,113.7c-0.2-0.4-0.5-0.6-1-0.7l-0.3,0c-0.1-0.1-0.1-0.4,0-0.4c0.6,0,1,0,1.4,0c0.4,0,0.7,0,1.3,0
		c0.1,0.1,0.1,0.3,0,0.4l-0.2,0c-0.4,0.1-0.4,0.2-0.1,0.6l0.8,1.1c0.1,0.1,0.2,0.2,0.2,0.3c0.1,0,0.6-0.8,0.9-1.4
		c0.3-0.4,0.2-0.5-0.1-0.6l-0.2,0c-0.1-0.1-0.1-0.4,0.1-0.4c0.4,0,0.8,0,1.2,0c0.4,0,0.9,0,1.2,0c0.1,0.1,0.1,0.3,0,0.4l-0.2,0
		c-0.4,0.1-0.6,0.1-0.8,0.3c-0.3,0.2-0.9,1-1.5,1.8c-0.2,0.3-0.2,0.3,0,0.6l1.5,2.1c0.4,0.5,0.6,0.7,1,0.8l0.3,0
		c0.1,0.1,0.1,0.4,0,0.4c-0.6,0-1.1,0-1.6,0c-0.6,0-1,0-1.5,0c-0.1,0-0.2-0.3,0-0.4l0.5,0c0.5,0,0.5-0.2,0.3-0.5l-0.8-1.2
		c-0.2-0.3-0.3-0.4-0.3-0.5c0,0-0.2,0.2-0.3,0.4l-0.7,1.1c-0.3,0.5-0.3,0.6,0,0.7l0.3,0c0.1,0.1,0.1,0.4,0,0.4c-0.4,0-0.8,0-1.2,0
		c-0.4,0-0.7,0-1.2,0c-0.1-0.1-0.1-0.3,0-0.4l0.4-0.1c0.3,0,0.5-0.2,0.8-0.5c0.3-0.4,1-1.4,1.4-1.9c0.1-0.2,0.2-0.2,0-0.4
		L18.7,113.7z"/>
	<path d="M26.7,116.5c0,1.1,0.3,1.8,1.5,1.8c0.4,0,0.9-0.2,1.3-0.5c0.2-0.2,0.3-0.4,0.3-0.9v-2.6c0-1-0.1-1.1-0.6-1.3L29,113
		c-0.1-0.1-0.1-0.3,0-0.4c0.6,0,1.5-0.1,1.9-0.3c0.1,0,0.1,0,0.1,0.1c0,0.3,0,0.8,0,1.4v2.7c0,1.3,0,1.7,0.5,1.7
		c0.2,0,0.4,0,0.6-0.1c0.1,0.1,0.1,0.4,0,0.5c-0.6,0.1-1.5,0.3-2.1,0.6c-0.1,0-0.2,0-0.2-0.1v-0.7c0-0.1,0-0.2-0.1-0.2
		c-0.5,0.3-1.3,0.8-2.2,0.8c-1.4,0-1.9-0.7-1.9-2v-2.7c0-1,0-1.2-0.5-1.4l-0.2-0.1c-0.1-0.1-0.1-0.3,0-0.4c0.7,0,1.3-0.2,1.7-0.3
		c0.1,0,0.1,0,0.2,0.1c0,0.3,0,0.6,0,1.4V116.5z"/>
	<path d="M33.8,114.3c0-0.6,0-0.7-0.4-1l-0.1-0.1c-0.1-0.1-0.1-0.2,0-0.3c0.4-0.1,1.2-0.5,1.6-0.8c0.1,0,0.1,0,0.1,0.1v0.9
		c0,0.1,0,0.1,0,0.1c0.6-0.5,1.2-1,1.7-1c0.4,0,0.7,0.3,0.7,0.6c0,0.5-0.4,0.7-0.7,0.7c-0.2,0-0.2,0-0.3-0.1
		c-0.2-0.2-0.5-0.3-0.7-0.3c-0.3,0-0.4,0.1-0.6,0.3c-0.2,0.2-0.2,0.7-0.2,1.2v2.2c0,1.2,0,1.3,0.6,1.4l0.6,0c0.1,0.1,0.1,0.4,0,0.4
		c-0.7,0-1.2,0-1.8,0c-0.6,0-1,0-1.5,0c-0.1,0-0.1-0.3,0-0.4l0.3,0c0.6-0.1,0.6-0.2,0.6-1.4V114.3z"/>
	<path d="M38.2,122.2c0-0.4,0.3-0.6,0.6-0.6h0.3c0.3,0,0.4-0.1,0.5-0.3c0.5-0.7,0.8-1.4,0.9-1.8c0-0.1,0.2-0.5,0.2-0.7
		c0-0.3-0.1-0.5-0.3-1.1l-1.2-3.4c-0.3-0.8-0.4-1.1-0.9-1.2l-0.4-0.1c-0.1-0.1-0.1-0.4,0-0.4c0.5,0,1,0,1.5,0c0.4,0,0.9,0,1.4,0
		c0.1,0,0.1,0.3,0,0.4l-0.4,0.1c-0.2,0-0.3,0.1-0.3,0.2c0,0.2,0.4,1.2,0.5,1.5l0.5,1.5c0.1,0.3,0.4,1.1,0.5,1.1c0,0,0.3-0.5,0.6-1.2
		l0.5-1.3c0.3-0.8,0.6-1.4,0.6-1.6c0-0.1-0.1-0.2-0.4-0.3l-0.5-0.1c-0.1-0.1-0.1-0.4,0-0.4c0.5,0,1,0,1.4,0c0.4,0,0.8,0,1.2,0
		c0.1,0.1,0.1,0.3,0,0.4l-0.3,0c-0.5,0.1-0.8,0.6-1.3,1.7l-0.9,1.8c-0.5,1.1-1.8,3.9-2.6,5.6c-0.3,0.6-0.6,0.8-1,0.8
		C38.4,122.9,38.2,122.6,38.2,122.2z"/>
	<path d="M50.8,110.7c0-1.5,0-1.8-0.7-1.9l-0.5-0.1c-0.1-0.1-0.1-0.3,0-0.4c0.9-0.1,2-0.1,3.5-0.1c1,0,1.9,0.1,2.6,0.5
		c0.8,0.4,1.3,1.1,1.3,2.2c0,1.5-1.2,2.4-2,2.7c-0.1,0.1,0,0.3,0.1,0.4c1.3,2.1,2.1,3.3,3.2,4.3c0.3,0.2,0.7,0.4,1.1,0.4
		c0.1,0,0.1,0.2,0,0.2c-0.1,0-0.4,0.1-0.7,0.1c-1.3,0-2.2-0.4-3.3-2c-0.4-0.6-1.1-1.7-1.6-2.4c-0.2-0.4-0.5-0.5-1.1-0.5
		c-0.7,0-0.7,0-0.7,0.4v2c0,1.7,0,1.9,1,2l0.3,0c0.1,0.1,0.1,0.4,0,0.4c-0.7,0-1.3,0-1.9,0c-0.7,0-1.2,0-2,0c-0.1,0-0.1-0.3,0-0.4
		l0.4,0c0.9-0.1,1-0.3,1-2V110.7z M52.1,113c0,0.3,0,0.5,0,0.5c0,0,0.3,0.1,1.1,0.1c0.6,0,1.2-0.1,1.6-0.4c0.4-0.3,0.8-0.9,0.8-2
		c0-1.3-0.8-2.5-2.5-2.5c-1,0-1,0.1-1,0.5V113z"/>
	<path d="M60.8,114.8c-0.4,0-0.4,0-0.4,0.4c0,1.6,0.9,3,2.6,3c0.5,0,1-0.2,1.5-0.8c0.2,0,0.3,0,0.3,0.2c-0.5,1.1-1.7,1.5-2.5,1.5
		c-1,0-1.8-0.4-2.3-1.1c-0.5-0.6-0.7-1.4-0.7-2.1c0-2,1.3-3.6,3.2-3.6c1.4,0,2.2,0.9,2.2,1.9c0,0.2,0,0.4-0.1,0.4
		c0,0.1-0.3,0.1-0.9,0.1H60.8z M61.8,114.3c1.2,0,1.5-0.1,1.6-0.2c0,0,0.1-0.1,0.1-0.3c0-0.4-0.3-1-1.2-1c-0.9,0-1.7,0.9-1.8,1.4
		c0,0,0,0.1,0.1,0.1H61.8z"/>
	<path d="M69.4,112.6c0.1,0.4,0.3,0.9,0.3,1.3c-0.1,0.1-0.3,0.1-0.4,0c-0.3-0.7-0.7-1.2-1.4-1.2c-0.6,0-1,0.4-1,1
		c0,0.7,0.7,1,1.2,1.3c0.8,0.5,1.6,1,1.6,2.2c0,1.2-1.1,1.8-2.3,1.8c-0.7,0-1.3-0.2-1.7-0.5c-0.1-0.3-0.2-1.1-0.2-1.6
		c0.1-0.1,0.3-0.1,0.4,0c0.3,0.9,0.8,1.6,1.7,1.6c0.6,0,1.1-0.3,1.1-1c0-0.7-0.6-1.1-1.2-1.5c-0.9-0.5-1.6-1.1-1.6-2
		c0-1.2,1-1.8,2.2-1.8C68.6,112.4,69.2,112.5,69.4,112.6z"/>
	<path d="M71.7,114.3c0-0.6,0-0.7-0.4-1l-0.1-0.1c-0.1-0.1-0.1-0.2,0-0.3c0.4-0.1,1.3-0.5,1.6-0.8c0.1,0,0.1,0,0.2,0.1
		c0,0.6-0.1,1.3-0.1,2v2.9c0,1.2,0,1.3,0.6,1.4l0.3,0c0.1,0.1,0.1,0.4,0,0.4c-0.5,0-0.9,0-1.5,0c-0.6,0-1,0-1.5,0
		c-0.1,0-0.1-0.3,0-0.4l0.3,0c0.6-0.1,0.6-0.2,0.6-1.4V114.3z M73,109.7c0,0.6-0.4,0.8-0.8,0.8c-0.5,0-0.8-0.4-0.8-0.8
		c0-0.5,0.4-0.9,0.9-0.9S73,109.3,73,109.7z"/>
	<path d="M80.9,116.5c0,1.3,0,1.9,0.5,1.9c0.2,0,0.4-0.1,0.7-0.2c0.1,0,0.1,0.4,0,0.5c-0.7,0.1-1.6,0.3-2.1,0.5
		c-0.1,0-0.2,0-0.2-0.1v-0.3c0-0.2,0-0.4,0-0.5h-0.1c-0.7,0.5-1.2,0.7-2,0.7c-1.8,0-2.9-1.4-2.9-3.1c0-2.2,1.7-3.7,3.8-3.7
		c0.5,0,0.9,0.1,1.1,0.1c0.1,0,0.1-0.1,0.1-0.2v-2.4c0-0.9,0-1-0.5-1.3l-0.2-0.1c-0.1,0-0.1-0.3,0-0.3c0.4-0.1,1.1-0.4,1.7-0.7
		c0.1,0,0.1,0,0.2,0.1c0,0.5,0,1.3,0,2V116.5z M79.8,114.1c0-0.3-0.1-0.5-0.2-0.6c-0.2-0.3-0.7-0.7-1.3-0.7c-1.4,0-2.2,1.3-2.2,2.7
		c0,1.5,0.8,2.8,2.4,2.8c0.4,0,1-0.2,1.2-0.4c0.1-0.1,0.1-0.3,0.1-0.6V114.1z"/>
	<path d="M84.3,114.8c-0.4,0-0.4,0-0.4,0.4c0,1.6,0.9,3,2.6,3c0.5,0,1-0.2,1.5-0.8c0.2,0,0.3,0,0.3,0.2c-0.5,1.1-1.7,1.5-2.5,1.5
		c-1,0-1.8-0.4-2.3-1.1c-0.5-0.6-0.7-1.4-0.7-2.1c0-2,1.3-3.6,3.2-3.6c1.4,0,2.2,0.9,2.2,1.9c0,0.2,0,0.4-0.1,0.4
		c0,0.1-0.3,0.1-0.9,0.1H84.3z M85.3,114.3c1.2,0,1.5-0.1,1.6-0.2c0,0,0.1-0.1,0.1-0.3c0-0.4-0.3-1-1.2-1c-0.9,0-1.7,0.9-1.8,1.4
		c0,0,0,0.1,0.1,0.1H85.3z"/>
	<path d="M90.1,114.3c0-0.6,0-0.7-0.4-1l-0.1-0.1c-0.1-0.1-0.1-0.2,0-0.3c0.4-0.1,1.3-0.5,1.6-0.8c0.1,0,0.1,0,0.2,0.1
		c0,0.4,0,0.6,0,0.8c0,0.1,0.1,0.2,0.2,0.2c0.7-0.4,1.4-0.8,2.2-0.8c1.3,0,1.9,0.9,1.9,2v2.8c0,1.2,0,1.3,0.6,1.4l0.3,0
		c0.1,0.1,0.1,0.4,0,0.4c-0.5,0-0.9,0-1.5,0c-0.6,0-1,0-1.5,0c-0.1,0-0.1-0.3,0-0.4l0.3,0c0.6-0.1,0.6-0.2,0.6-1.4v-2.4
		c0-0.9-0.4-1.6-1.5-1.6c-0.6,0-1.1,0.3-1.3,0.6c-0.2,0.3-0.2,0.5-0.2,1v2.4c0,1.2,0,1.3,0.6,1.4l0.3,0c0.1,0.1,0.1,0.4,0,0.4
		c-0.4,0-0.9,0-1.4,0c-0.6,0-1,0-1.5,0c-0.1,0-0.1-0.3,0-0.4l0.3,0c0.6-0.1,0.6-0.2,0.6-1.4V114.3z"/>
	<path d="M102.7,112.6c0.1,0.1,0.2,0.4,0.2,0.6c0,0.3-0.2,0.6-0.3,0.6c-0.1,0-0.2,0-0.2-0.1c-0.3-0.4-0.9-0.8-1.6-0.8
		c-1.1,0-2.2,0.9-2.2,2.6c0,1.2,0.9,2.7,2.6,2.7c0.9,0,1.4-0.4,1.8-1c0.1,0,0.3,0.1,0.3,0.2c-0.5,1.2-1.7,1.6-2.6,1.6
		c-0.8,0-1.6-0.3-2.2-0.8c-0.6-0.5-0.9-1.3-0.9-2.4c0-1.7,1.2-3.6,3.8-3.6C101.6,112.4,102.3,112.4,102.7,112.6z"/>
	<path d="M105.3,114.8c-0.4,0-0.4,0-0.4,0.4c0,1.6,0.9,3,2.6,3c0.5,0,1-0.2,1.5-0.8c0.2,0,0.3,0,0.3,0.2c-0.5,1.1-1.7,1.5-2.5,1.5
		c-1,0-1.8-0.4-2.3-1.1c-0.5-0.6-0.7-1.4-0.7-2.1c0-2,1.3-3.6,3.2-3.6c1.4,0,2.2,0.9,2.2,1.9c0,0.2,0,0.4-0.1,0.4
		c0,0.1-0.3,0.1-0.9,0.1H105.3z M106.3,114.3c1.2,0,1.5-0.1,1.6-0.2c0,0,0.1-0.1,0.1-0.3c0-0.4-0.3-1-1.2-1c-0.9,0-1.7,0.9-1.8,1.4
		c0,0,0,0.1,0.1,0.1H106.3z"/>
</g>
<g class="st0">
	<path d="M6.4,240.3c0,1.7,0,1.9,1,2l0.5,0c0.1,0.1,0.1,0.4,0,0.4c-0.9,0-1.4,0-2.1,0c-0.6,0-1.2,0-2.2,0c-0.1,0-0.1-0.3,0-0.4
		l0.6,0c0.9-0.1,1-0.3,1-2v-7.1c0-0.5,0-0.5-0.5-0.5H3.7c-0.7,0-1.6,0-1.9,0.4c-0.4,0.4-0.5,0.7-0.7,1.1c-0.1,0.1-0.3,0-0.4-0.1
		c0.3-0.7,0.5-1.7,0.6-2.4c0,0,0.3,0,0.3,0c0.1,0.5,0.6,0.5,1.3,0.5h6.4c0.9,0,1,0,1.2-0.4c0.1,0,0.3,0,0.3,0
		c-0.2,0.7-0.3,2-0.2,2.4c-0.1,0.1-0.3,0.1-0.4,0c0-0.4-0.2-1-0.4-1.2c-0.4-0.3-1-0.4-1.8-0.4H6.8c-0.5,0-0.5,0-0.5,0.5V240.3z"/>
	<path d="M11.2,237.5c0-3.2,2.4-5.6,5.6-5.6c3.7,0,5.5,2.7,5.5,5.5c0,3.2-2.4,5.6-5.5,5.6C13.3,242.9,11.2,240.4,11.2,237.5z
		 M20.8,237.9c0-2.6-1.2-5.5-4.2-5.5c-1.6,0-3.8,1.1-3.8,4.6c0,2.4,1.1,5.4,4.3,5.4C19,242.4,20.8,241,20.8,237.9z"/>
	<path d="M37.3,241.1c0,0.6,0.1,1,0.4,1.1c0,0,0,0.1,0,0.2c-0.2,0-0.5,0.1-0.8,0.1c-0.8,0.2-2,0.4-2.8,0.4c-1.9,0-3.6-0.5-4.8-1.8
		c-1-1-1.5-2.2-1.5-3.6c0-1.4,0.4-2.7,1.4-3.8c1.1-1.1,2.6-1.9,5-1.9c0.9,0,1.7,0.2,2,0.2c0.3,0.1,0.8,0.2,1,0.1
		c0,0.5,0.1,1.4,0.2,2.3c0,0.1-0.3,0.1-0.4,0c-0.4-1.7-1.6-2.3-3.2-2.3c-3.1,0-4.4,2.2-4.4,4.6c0,3.1,1.6,5.5,4.8,5.5
		c1,0,1.6-0.2,1.7-0.5c0.1-0.1,0.2-0.4,0.2-0.9v-0.6c0-1.3,0-1.4-1-1.6l-0.7-0.1c-0.1-0.1-0.1-0.4,0-0.4c0.5,0,1.3,0,2.3,0
		c0.6,0,1.2,0,1.7,0c0.1,0.1,0.1,0.3,0,0.4l-0.3,0c-0.7,0.1-0.7,0.5-0.7,1.3V241.1z"/>
	<path d="M40.9,234.5c0-1.7,0-1.9-1-2l-0.3,0c-0.1-0.1-0.1-0.4,0-0.4c0.7,0,1.2,0,1.9,0h3c1,0,1.9,0,2.1,0c0.1,0.3,0.2,1.4,0.3,2.1
		c-0.1,0.1-0.3,0.1-0.4,0c-0.2-0.8-0.4-1.3-1.2-1.5c-0.3-0.1-0.8-0.1-1.5-0.1h-1.1c-0.5,0-0.5,0-0.5,0.6v3.2c0,0.4,0,0.4,0.5,0.4
		h0.9c0.7,0,1.2,0,1.3-0.1s0.3-0.2,0.4-0.6l0.1-0.7c0.1-0.1,0.3-0.1,0.4,0c0,0.4-0.1,1-0.1,1.6c0,0.6,0.1,1.2,0.1,1.5
		c-0.1,0.1-0.3,0.1-0.4,0l-0.1-0.6c-0.1-0.3-0.2-0.5-0.5-0.6c-0.2-0.1-0.6-0.1-1.2-0.1h-0.9c-0.5,0-0.5,0-0.5,0.4v2.3
		c0,0.8,0,1.4,0.3,1.7c0.2,0.2,0.5,0.4,1.9,0.4c1.2,0,1.7-0.1,2-0.2c0.3-0.2,0.7-0.7,1.1-1.6c0.1-0.1,0.3,0,0.4,0.1
		c-0.1,0.6-0.5,1.8-0.7,2.2c-1.4,0-2.8,0-4.2,0h-1.4c-0.7,0-1.2,0-2.2,0c-0.1,0-0.1-0.3,0-0.4l0.5,0c0.9-0.1,1-0.3,1-2V234.5z"/>
	<path d="M54,240.3c0,1.7,0,1.9,1,2l0.5,0c0.1,0.1,0.1,0.4,0,0.4c-0.9,0-1.4,0-2.1,0c-0.6,0-1.2,0-2.2,0c-0.1,0-0.1-0.3,0-0.4l0.6,0
		c0.9-0.1,1-0.3,1-2v-7.1c0-0.5,0-0.5-0.5-0.5h-0.9c-0.7,0-1.6,0-1.9,0.4c-0.4,0.4-0.5,0.7-0.7,1.1c-0.1,0.1-0.3,0-0.4-0.1
		c0.3-0.7,0.5-1.7,0.6-2.4c0,0,0.3,0,0.3,0c0.1,0.5,0.6,0.5,1.3,0.5h6.4c0.9,0,1,0,1.2-0.4c0.1,0,0.3,0,0.3,0
		c-0.2,0.7-0.3,2-0.2,2.4c-0.1,0.1-0.3,0.1-0.4,0c0-0.4-0.2-1-0.4-1.2c-0.4-0.3-1-0.4-1.8-0.4h-1.1c-0.5,0-0.5,0-0.5,0.5V240.3z"/>
	<path d="M64.6,234.5c0-1.7,0-1.9-1-2l-0.3,0c-0.1-0.1-0.1-0.4,0-0.4c0.7,0,1.2,0,1.9,0h3c1,0,1.9,0,2.1,0c0.1,0.3,0.2,1.4,0.3,2.1
		c-0.1,0.1-0.3,0.1-0.4,0c-0.2-0.8-0.4-1.3-1.2-1.5c-0.3-0.1-0.8-0.1-1.5-0.1h-1.1c-0.5,0-0.5,0-0.5,0.6v3.2c0,0.4,0,0.4,0.5,0.4
		h0.9c0.7,0,1.2,0,1.3-0.1s0.3-0.2,0.4-0.6l0.1-0.7c0.1-0.1,0.3-0.1,0.4,0c0,0.4-0.1,1-0.1,1.6c0,0.6,0.1,1.2,0.1,1.5
		c-0.1,0.1-0.3,0.1-0.4,0l-0.1-0.6c-0.1-0.3-0.2-0.5-0.5-0.6c-0.2-0.1-0.6-0.1-1.2-0.1h-0.9c-0.5,0-0.5,0-0.5,0.4v2.3
		c0,0.8,0,1.4,0.3,1.7c0.2,0.2,0.5,0.4,1.9,0.4c1.2,0,1.7-0.1,2-0.2c0.3-0.2,0.7-0.7,1.1-1.6c0.1-0.1,0.3,0,0.4,0.1
		c-0.1,0.6-0.5,1.8-0.7,2.2c-1.4,0-2.8,0-4.2,0h-1.4c-0.7,0-1.2,0-2.2,0c-0.1,0-0.1-0.3,0-0.4l0.5,0c0.9-0.1,1-0.3,1-2V234.5z"/>
	<path d="M82.4,242.3c0.1,0.1,0.1,0.3,0,0.4c-0.7,0-1.3,0-2,0c-0.7,0-1.5,0-2,0c-0.1-0.1-0.1-0.3,0-0.4l0.5,0c0.4,0,0.5-0.1,0.5-0.2
		c0-0.1,0-0.3-0.3-0.7c-0.7-1-1.6-2.3-2.3-3.2c-0.4,0.5-1.6,2.3-2.2,3.4c-0.1,0.2-0.2,0.4-0.2,0.5c0,0.1,0.1,0.2,0.5,0.2l0.4,0
		c0.1,0.1,0.1,0.3,0,0.4c-0.6,0-1.2,0-1.7,0s-1.1,0-1.6,0c-0.1-0.1-0.2-0.3,0-0.4l0.4,0c0.9-0.1,1.4-0.8,1.9-1.4
		c0.2-0.3,1.3-1.7,2.2-2.9c0.1-0.2,0.1-0.3,0.1-0.3s-0.1-0.2-0.2-0.4l-2.4-3.4c-0.5-0.8-0.8-1.1-1.4-1.2l-0.5-0.1
		c-0.1-0.1-0.1-0.4,0-0.4c0.7,0,1.3,0,1.8,0c0.6,0,1.3,0,1.8,0c0.1,0,0.1,0.3,0,0.4l-0.4,0c-0.3,0-0.5,0.1-0.5,0.2
		c0,0.1,0.2,0.4,0.5,0.9c0.5,0.8,1.5,2.2,2,2.9c0.4-0.5,1.8-2.8,2.1-3.3c0.1-0.2,0.2-0.4,0.2-0.5c0-0.1-0.2-0.2-0.5-0.2l-0.4,0
		c-0.1-0.1-0.1-0.3,0-0.4c0.6,0,1.1,0,1.7,0c0.6,0,1,0,1.5,0c0.1,0.1,0.1,0.3,0,0.4l-0.4,0c-0.5,0-1,0.5-1.7,1.4
		c-0.6,0.8-1.3,1.8-2.1,2.8c-0.1,0.1-0.2,0.3-0.2,0.3c0,0,0,0.2,0.2,0.4l2.7,3.8c0.5,0.8,1,1,1.4,1.1L82.4,242.3z"/>
	<path d="M84.3,233.2c1.2-0.9,2.6-1.4,4.3-1.4c0.9,0,2.1,0.2,2.8,0.4c0.2,0,0.3,0.1,0.4,0.1c0,0.4,0.1,1.4,0.2,2.3
		c-0.1,0.1-0.3,0.1-0.4,0c-0.2-1.1-1-2.3-3.2-2.3c-2.4,0-4.5,1.6-4.5,4.9c0,3.4,2.1,5.2,4.7,5.2c2,0,2.9-1.3,3.3-2.3
		c0.1-0.1,0.3,0,0.4,0.1c-0.1,0.8-0.5,1.9-0.8,2.2c-0.2,0-0.4,0.1-0.6,0.2c-0.3,0.1-1.5,0.4-2.5,0.4c-1.4,0-2.8-0.3-3.9-1.1
		c-1.3-0.9-2.2-2.3-2.2-4.4C82.3,235.7,83.1,234.2,84.3,233.2z"/>
	<path d="M94.7,234.5c0-1.7,0-1.9-1-2l-0.4,0c-0.1-0.1-0.1-0.4,0-0.4c0.9,0,1.4,0,2.1,0c0.6,0,1.2,0,1.9,0c0.1,0,0.1,0.3,0,0.4
		l-0.4,0c-0.9,0.1-1,0.3-1,2v5.6c0,1,0,1.4,0.3,1.7c0.2,0.2,0.5,0.4,1.7,0.4c1.3,0,1.7-0.1,1.9-0.2c0.3-0.2,0.7-0.8,1-1.6
		c0.1-0.1,0.4,0,0.4,0.1c0,0.2-0.4,1.8-0.7,2.2c-0.8,0-2.3,0-3.9,0h-1.5c-0.7,0-1.2,0-2.1,0c-0.1,0-0.1-0.3,0-0.4l0.5,0
		c0.9-0.1,1-0.3,1-2V234.5z"/>
	<path d="M110.7,236.1c0-1,0-2.8-0.3-3.3c-0.1-0.2-0.4-0.3-0.8-0.3l-0.4,0c-0.1-0.1-0.1-0.3,0-0.4c0.6,0,1.2,0,1.8,0
		c0.7,0,1.1,0,1.7,0c0.1,0.1,0.1,0.3,0,0.4l-0.4,0c-0.4,0-0.7,0.2-0.8,0.4c-0.2,0.5-0.2,2.4-0.2,3.3v1.8c0,1.4-0.2,2.9-1.1,3.8
		c-0.7,0.8-1.9,1.2-3,1.2c-1.1,0-2.2-0.2-3-0.9c-0.8-0.7-1.2-1.9-1.2-3.8v-3.8c0-1.7,0-1.9-1-2l-0.4,0c-0.1-0.1-0.1-0.3,0-0.4
		c0.8,0,1.3,0,2,0c0.6,0,1.2,0,1.9,0c0.1,0,0.1,0.3,0,0.4l-0.4,0c-0.9,0.1-1,0.4-1,2v3.5c0,2.6,0.8,4.3,3.2,4.3
		c2.3,0,3.2-1.8,3.2-4.3V236.1z"/>
	<path d="M116.5,242.9c-1.3,0-2.2-0.4-2.5-0.6c-0.2-0.4-0.4-1.5-0.4-2.2c0.1-0.1,0.3-0.1,0.4,0c0.2,0.8,0.9,2.4,2.7,2.4
		c1.3,0,2-0.9,2-1.8c0-0.7-0.1-1.5-1.3-2.2l-1.5-1c-0.8-0.5-1.7-1.4-1.7-2.8c0-1.5,1.2-2.8,3.2-2.8c0.5,0,1.1,0.1,1.5,0.2
		c0.2,0.1,0.4,0.1,0.6,0.1c0.1,0.4,0.3,1.3,0.3,2c-0.1,0.1-0.3,0.1-0.4,0c-0.2-0.8-0.6-1.8-2.2-1.8c-1.6,0-1.9,1-1.9,1.8
		c0,0.9,0.8,1.6,1.3,2l1.3,0.8c1,0.6,2,1.6,2,3.1C119.9,241.7,118.6,242.9,116.5,242.9z"/>
	<path d="M122.7,234.6c0-1.7,0-2-1-2l-0.4,0c-0.1-0.1-0.1-0.4,0-0.4c0.8,0,1.3,0,2,0c0.6,0,1.2,0,2,0c0.1,0,0.1,0.3,0,0.4l-0.4,0
		c-0.9,0.1-1,0.4-1,2v5.7c0,1.7,0,1.9,1,2l0.4,0c0.1,0.1,0.1,0.4,0,0.4c-0.8,0-1.3,0-2,0c-0.7,0-1.2,0-2,0c-0.1,0-0.1-0.3,0-0.4
		l0.4,0c0.9-0.1,1-0.3,1-2V234.6z"/>
	<path d="M127.6,233.8c-0.4-0.9-0.6-1.2-1.3-1.3l-0.3,0c-0.1-0.1-0.1-0.3,0-0.4c0.5,0,1,0,1.6,0c0.7,0,1.3,0,1.9,0
		c0.1,0.1,0.1,0.3,0,0.4l-0.2,0c-0.6,0.1-0.7,0.2-0.7,0.3c0,0.2,0.3,1,0.8,2.2c0.7,1.9,1.5,3.7,2.2,5.5c0.5-1.1,1.2-2.7,1.5-3.5
		c0.5-1.1,1.2-2.9,1.5-3.6c0.1-0.3,0.1-0.5,0.1-0.6s-0.2-0.2-0.7-0.3l-0.3,0c-0.1-0.1-0.1-0.3,0-0.4c0.4,0,1,0,1.6,0
		c0.5,0,1,0,1.5,0c0.1,0.1,0.1,0.3,0,0.4l-0.5,0c-0.4,0-0.6,0.2-0.8,0.6c-0.4,0.8-1.1,2-1.8,3.7l-0.9,2c-0.6,1.5-1.4,3.3-1.6,4.2
		c0,0-0.1,0-0.2,0c-0.1,0-0.2,0-0.2,0c-0.2-0.7-0.5-1.5-0.7-2.1L127.6,233.8z"/>
	<path d="M138.8,234.5c0-1.7,0-1.9-1-2l-0.3,0c-0.1-0.1-0.1-0.4,0-0.4c0.7,0,1.2,0,1.9,0h3c1,0,1.9,0,2.1,0c0.1,0.3,0.2,1.4,0.3,2.1
		c-0.1,0.1-0.3,0.1-0.4,0c-0.2-0.8-0.4-1.3-1.2-1.5c-0.3-0.1-0.8-0.1-1.5-0.1h-1.1c-0.5,0-0.5,0-0.5,0.6v3.2c0,0.4,0,0.4,0.5,0.4
		h0.9c0.7,0,1.2,0,1.3-0.1s0.3-0.2,0.4-0.6l0.1-0.7c0.1-0.1,0.3-0.1,0.4,0c0,0.4-0.1,1-0.1,1.6c0,0.6,0.1,1.2,0.1,1.5
		c-0.1,0.1-0.3,0.1-0.4,0l-0.1-0.6c-0.1-0.3-0.2-0.5-0.5-0.6c-0.2-0.1-0.6-0.1-1.2-0.1h-0.9c-0.5,0-0.5,0-0.5,0.4v2.3
		c0,0.8,0,1.4,0.3,1.7c0.2,0.2,0.5,0.4,1.9,0.4c1.2,0,1.7-0.1,2-0.2c0.3-0.2,0.7-0.7,1.1-1.6c0.1-0.1,0.3,0,0.4,0.1
		c-0.1,0.6-0.5,1.8-0.7,2.2c-1.4,0-2.8,0-4.2,0h-1.4c-0.7,0-1.2,0-2.2,0c-0.1,0-0.1-0.3,0-0.4l0.5,0c0.9-0.1,1-0.3,1-2V234.5z"/>
	<path d="M153.3,240.3c0,1.7,0,1.9,1,2l0.4,0c0.1,0.1,0.1,0.4,0,0.4c-0.9,0-1.4,0-2.1,0c-0.7,0-1.2,0-1.9,0c-0.1,0-0.1-0.3,0-0.4
		l0.3,0c0.9-0.1,1-0.3,1-2v-5.9c0-1.4,0-1.6-0.7-1.7l-0.6-0.1c-0.1-0.1-0.1-0.3,0-0.4c0.8-0.1,1.8-0.1,3.1-0.1s2.3,0.2,3,0.6
		c0.7,0.5,1.3,1.3,1.3,2.4c0,1.5-0.9,2.2-1.6,2.5c-0.7,0.3-1.5,0.5-2.2,0.5c-0.1,0-0.1-0.3,0-0.3c1.7-0.3,2.3-1.3,2.3-2.7
		c0-1.6-0.9-2.6-2.5-2.6c-0.8,0-0.9,0.1-0.9,0.6V240.3z"/>
	<path d="M160.7,234.5c0-1.5,0-1.8-0.7-1.9l-0.5-0.1c-0.1-0.1-0.1-0.3,0-0.4c0.9-0.1,2-0.1,3.5-0.1c1,0,1.9,0.1,2.6,0.5
		c0.8,0.4,1.3,1.1,1.3,2.2c0,1.5-1.2,2.4-2,2.7c-0.1,0.1,0,0.3,0.1,0.4c1.3,2.1,2.1,3.3,3.2,4.3c0.3,0.2,0.7,0.4,1.1,0.4
		c0.1,0,0.1,0.2,0,0.2c-0.1,0-0.4,0.1-0.7,0.1c-1.3,0-2.2-0.4-3.3-2c-0.4-0.6-1.1-1.7-1.6-2.4c-0.2-0.4-0.5-0.5-1.1-0.5
		c-0.7,0-0.7,0-0.7,0.4v2c0,1.7,0,1.9,1,2l0.3,0c0.1,0.1,0.1,0.4,0,0.4c-0.7,0-1.3,0-1.9,0c-0.7,0-1.2,0-2,0c-0.1,0-0.1-0.3,0-0.4
		l0.4,0c0.9-0.1,0.9-0.3,0.9-2V234.5z M162,236.8c0,0.3,0,0.5,0,0.5c0,0,0.3,0.1,1.1,0.1c0.6,0,1.2-0.1,1.6-0.4
		c0.4-0.3,0.8-0.9,0.8-2c0-1.3-0.8-2.5-2.5-2.5c-1,0-1,0.1-1,0.5V236.8z"/>
	<path d="M170.9,234.6c0-1.7,0-2-1-2l-0.4,0c-0.1-0.1-0.1-0.4,0-0.4c0.8,0,1.3,0,2,0c0.6,0,1.2,0,2,0c0.1,0,0.1,0.3,0,0.4l-0.4,0
		c-0.9,0.1-1,0.4-1,2v5.7c0,1.7,0,1.9,1,2l0.4,0c0.1,0.1,0.1,0.4,0,0.4c-0.8,0-1.3,0-2,0c-0.7,0-1.2,0-2,0c-0.1,0-0.1-0.3,0-0.4
		l0.4,0c0.9-0.1,1-0.3,1-2V234.6z"/>
	<path d="M175.8,233.8c-0.4-0.9-0.6-1.2-1.3-1.3l-0.3,0c-0.1-0.1-0.1-0.3,0-0.4c0.5,0,1,0,1.6,0c0.7,0,1.3,0,1.9,0
		c0.1,0.1,0.1,0.3,0,0.4l-0.2,0c-0.6,0.1-0.7,0.2-0.7,0.3c0,0.2,0.3,1,0.8,2.2c0.7,1.9,1.5,3.7,2.2,5.5c0.5-1.1,1.2-2.7,1.5-3.5
		c0.5-1.1,1.2-2.9,1.5-3.6c0.1-0.3,0.1-0.5,0.1-0.6s-0.2-0.2-0.7-0.3l-0.3,0c-0.1-0.1-0.1-0.3,0-0.4c0.4,0,1,0,1.6,0
		c0.5,0,1,0,1.5,0c0.1,0.1,0.1,0.3,0,0.4l-0.5,0c-0.4,0-0.6,0.2-0.8,0.6c-0.4,0.8-1.1,2-1.8,3.7l-0.9,2c-0.6,1.5-1.4,3.3-1.6,4.2
		c0,0-0.1,0-0.2,0c-0.1,0-0.2,0-0.2,0c-0.2-0.7-0.5-1.5-0.7-2.1L175.8,233.8z"/>
	<path d="M187,234.6c0-1.7,0-2-1-2l-0.4,0c-0.1-0.1-0.1-0.4,0-0.4c0.8,0,1.3,0,2,0c0.6,0,1.2,0,2,0c0.1,0,0.1,0.3,0,0.4l-0.4,0
		c-0.9,0.1-1,0.4-1,2v5.7c0,1.7,0,1.9,1,2l0.4,0c0.1,0.1,0.1,0.4,0,0.4c-0.8,0-1.3,0-2,0c-0.7,0-1.2,0-2,0c-0.1,0-0.1-0.3,0-0.4
		l0.4,0c0.9-0.1,1-0.3,1-2V234.6z"/>
	<path d="M192.3,234.5c0-1.7,0-1.9-1-2l-0.4,0c-0.1-0.1-0.1-0.4,0-0.4c0.9,0,1.4,0,2.1,0c0.6,0,1.2,0,1.9,0c0.1,0,0.1,0.3,0,0.4
		l-0.4,0c-0.9,0.1-1,0.3-1,2v5.6c0,1,0,1.4,0.3,1.7c0.2,0.2,0.5,0.4,1.7,0.4c1.3,0,1.7-0.1,1.9-0.2c0.3-0.2,0.7-0.8,1-1.6
		c0.1-0.1,0.4,0,0.4,0.1c0,0.2-0.4,1.8-0.7,2.2c-0.8,0-2.3,0-3.9,0H193c-0.7,0-1.2,0-2.1,0c-0.1,0-0.1-0.3,0-0.4l0.5,0
		c0.9-0.1,1-0.3,1-2V234.5z"/>
	<path d="M201.1,234.5c0-1.7,0-1.9-1-2l-0.3,0c-0.1-0.1-0.1-0.4,0-0.4c0.7,0,1.2,0,1.9,0h3c1,0,1.9,0,2.1,0c0.1,0.3,0.2,1.4,0.3,2.1
		c-0.1,0.1-0.3,0.1-0.4,0c-0.2-0.8-0.4-1.3-1.2-1.5c-0.3-0.1-0.8-0.1-1.5-0.1h-1.1c-0.5,0-0.5,0-0.5,0.6v3.2c0,0.4,0,0.4,0.5,0.4
		h0.9c0.7,0,1.2,0,1.3-0.1c0.2-0.1,0.3-0.2,0.4-0.6l0.1-0.7c0.1-0.1,0.3-0.1,0.4,0c0,0.4-0.1,1-0.1,1.6c0,0.6,0.1,1.2,0.1,1.5
		c-0.1,0.1-0.3,0.1-0.4,0l-0.1-0.6c-0.1-0.3-0.2-0.5-0.5-0.6c-0.2-0.1-0.6-0.1-1.2-0.1h-0.9c-0.5,0-0.5,0-0.5,0.4v2.3
		c0,0.8,0,1.4,0.3,1.7c0.2,0.2,0.5,0.4,1.9,0.4c1.2,0,1.7-0.1,2-0.2c0.3-0.2,0.7-0.7,1.1-1.6c0.1-0.1,0.3,0,0.4,0.1
		c-0.1,0.6-0.5,1.8-0.7,2.2c-1.4,0-2.8,0-4.2,0h-1.4c-0.7,0-1.2,0-2.2,0c-0.1,0-0.1-0.3,0-0.4l0.5,0c0.9-0.1,1-0.3,1-2V234.5z"/>
	<path d="M218.6,241.1c0,0.6,0.1,1,0.4,1.1c0,0,0,0.1,0,0.2c-0.2,0-0.5,0.1-0.8,0.1c-0.8,0.2-2,0.4-2.8,0.4c-1.9,0-3.6-0.5-4.8-1.8
		c-1-1-1.5-2.2-1.5-3.6c0-1.4,0.4-2.7,1.4-3.8c1.1-1.1,2.6-1.9,5-1.9c0.9,0,1.7,0.2,2,0.2c0.3,0.1,0.8,0.2,1,0.1
		c0,0.5,0.1,1.4,0.2,2.3c0,0.1-0.3,0.1-0.4,0c-0.4-1.7-1.6-2.3-3.2-2.3c-3.1,0-4.4,2.2-4.4,4.6c0,3.1,1.6,5.5,4.8,5.5
		c1,0,1.6-0.2,1.7-0.5c0.1-0.1,0.2-0.4,0.2-0.9v-0.6c0-1.3,0-1.4-1-1.6l-0.7-0.1c-0.1-0.1-0.1-0.4,0-0.4c0.5,0,1.3,0,2.3,0
		c0.6,0,1.2,0,1.7,0c0.1,0.1,0.1,0.3,0,0.4l-0.3,0c-0.7,0.1-0.7,0.5-0.7,1.3V241.1z"/>
	<path d="M222.2,234.5c0-1.7,0-1.9-1-2l-0.3,0c-0.1-0.1-0.1-0.4,0-0.4c0.7,0,1.2,0,1.9,0h3c1,0,1.9,0,2.1,0c0.1,0.3,0.2,1.4,0.3,2.1
		c-0.1,0.1-0.3,0.1-0.4,0c-0.2-0.8-0.4-1.3-1.2-1.5c-0.3-0.1-0.8-0.1-1.5-0.1H224c-0.5,0-0.5,0-0.5,0.6v3.2c0,0.4,0,0.4,0.5,0.4h0.9
		c0.7,0,1.2,0,1.3-0.1s0.3-0.2,0.4-0.6l0.1-0.7c0.1-0.1,0.3-0.1,0.4,0c0,0.4-0.1,1-0.1,1.6c0,0.6,0.1,1.2,0.1,1.5
		c-0.1,0.1-0.3,0.1-0.4,0l-0.1-0.6c-0.1-0.3-0.2-0.5-0.5-0.6c-0.2-0.1-0.6-0.1-1.2-0.1H224c-0.5,0-0.5,0-0.5,0.4v2.3
		c0,0.8,0,1.4,0.3,1.7c0.2,0.2,0.5,0.4,1.9,0.4c1.2,0,1.7-0.1,2-0.2c0.3-0.2,0.7-0.7,1.1-1.6c0.1-0.1,0.3,0,0.4,0.1
		c-0.1,0.6-0.5,1.8-0.7,2.2c-1.4,0-2.8,0-4.2,0h-1.4c-0.7,0-1.2,0-2.2,0c-0.1,0-0.1-0.3,0-0.4l0.5,0c0.9-0.1,1-0.3,1-2V234.5z"/>
</g>
<g class="st0">
	<path d="M7,258.2c-0.1-0.4-0.2-0.4-0.6-0.4H4c-0.4,0-0.5,0-0.6,0.4l-0.6,1.7c-0.2,0.7-0.3,1.2-0.3,1.3c0,0.2,0.1,0.3,0.5,0.3l0.5,0
		c0.1,0.1,0.1,0.3,0,0.4c-0.4,0-0.9,0-1.6,0c-0.5,0-1.1,0-1.5,0c-0.1-0.1-0.1-0.3,0-0.4l0.5,0c0.4,0,0.7-0.2,1-0.8
		c0.3-0.7,0.7-1.8,1.4-3.6l1.6-4.3c0.2-0.6,0.3-0.9,0.3-1.1c0.4-0.1,0.6-0.4,0.8-0.6c0.1,0,0.2,0,0.2,0.1c0.2,0.7,0.5,1.4,0.7,2.1
		l2.2,6.4c0.5,1.4,0.7,1.6,1.3,1.7l0.4,0c0.1,0.1,0.1,0.3,0,0.4c-0.6,0-1.2,0-1.9,0c-0.8,0-1.4,0-1.8,0c-0.1-0.1-0.1-0.3,0-0.4
		l0.5,0c0.3,0,0.6-0.1,0.6-0.3c0-0.2-0.1-0.5-0.2-0.8L7,258.2z M3.9,256.7c-0.1,0.4-0.1,0.4,0.3,0.4h1.9c0.5,0,0.5-0.1,0.3-0.5
		L5.6,254c-0.1-0.4-0.3-0.8-0.4-1h0c0,0.1-0.2,0.5-0.4,0.9L3.9,256.7z"/>
	<path d="M15.1,259.5c0,1.7,0,1.9,1,2l0.5,0c0.1,0.1,0.1,0.4,0,0.4c-0.9,0-1.4,0-2.1,0c-0.6,0-1.2,0-2.2,0c-0.1,0-0.1-0.3,0-0.4
		l0.6,0c0.9-0.1,1-0.3,1-2v-7.1c0-0.5,0-0.5-0.5-0.5h-0.9c-0.7,0-1.6,0-1.9,0.4c-0.4,0.4-0.5,0.7-0.7,1.1c-0.1,0.1-0.3,0-0.4-0.1
		c0.3-0.7,0.5-1.7,0.6-2.4c0,0,0.3,0,0.3,0c0.1,0.5,0.6,0.5,1.3,0.5h6.4c0.9,0,1,0,1.2-0.4c0.1,0,0.3,0,0.3,0
		c-0.2,0.7-0.3,2-0.2,2.4c-0.1,0.1-0.3,0.1-0.4,0c0-0.4-0.2-1-0.4-1.2c-0.4-0.3-1-0.4-1.8-0.4h-1.1c-0.5,0-0.5,0-0.5,0.5V259.5z"/>
	<path d="M25.8,253.7c0-1.7,0-1.9-1-2l-0.3,0c-0.1-0.1-0.1-0.4,0-0.4c0.7,0,1.2,0,1.9,0h3c1,0,1.9,0,2.1,0c0.1,0.3,0.2,1.4,0.3,2.1
		c-0.1,0.1-0.3,0.1-0.4,0c-0.2-0.8-0.4-1.3-1.2-1.5c-0.3-0.1-0.8-0.1-1.5-0.1h-1.1c-0.5,0-0.5,0-0.5,0.6v3.2c0,0.4,0,0.4,0.5,0.4
		h0.9c0.7,0,1.2,0,1.3-0.1c0.2-0.1,0.3-0.2,0.4-0.6l0.1-0.7c0.1-0.1,0.3-0.1,0.4,0c0,0.4-0.1,1-0.1,1.6c0,0.6,0.1,1.2,0.1,1.5
		c-0.1,0.1-0.3,0.1-0.4,0l-0.1-0.6c-0.1-0.3-0.2-0.5-0.5-0.6c-0.2-0.1-0.6-0.1-1.2-0.1h-0.9c-0.5,0-0.5,0-0.5,0.4v2.3
		c0,0.8,0,1.4,0.3,1.7c0.2,0.2,0.5,0.4,1.9,0.4c1.2,0,1.7-0.1,2-0.2c0.3-0.2,0.7-0.7,1.1-1.6c0.1-0.1,0.3,0,0.4,0.1
		c-0.1,0.6-0.5,1.8-0.7,2.2c-1.4,0-2.8,0-4.2,0h-1.4c-0.7,0-1.2,0-2.2,0c-0.1,0-0.1-0.3,0-0.4l0.5,0c0.9-0.1,1-0.3,1-2V253.7z"/>
	<path d="M43.5,261.5c0.1,0.1,0.1,0.3,0,0.4c-0.7,0-1.3,0-2,0c-0.7,0-1.5,0-2,0c-0.1-0.1-0.1-0.3,0-0.4l0.5,0c0.4,0,0.5-0.1,0.5-0.2
		c0-0.1,0-0.3-0.3-0.7c-0.7-1-1.6-2.3-2.3-3.2c-0.4,0.5-1.6,2.3-2.2,3.4c-0.1,0.2-0.2,0.4-0.2,0.5c0,0.1,0.1,0.2,0.5,0.2l0.4,0
		c0.1,0.1,0.1,0.3,0,0.4c-0.6,0-1.2,0-1.7,0s-1.1,0-1.6,0c-0.1-0.1-0.2-0.3,0-0.4l0.4,0c0.9-0.1,1.4-0.8,1.9-1.4
		c0.2-0.3,1.3-1.7,2.2-2.9c0.1-0.2,0.1-0.3,0.1-0.3c0,0-0.1-0.2-0.2-0.4l-2.4-3.4c-0.5-0.8-0.8-1.1-1.4-1.2l-0.5-0.1
		c-0.1-0.1-0.1-0.4,0-0.4c0.7,0,1.3,0,1.8,0c0.6,0,1.3,0,1.8,0c0.1,0,0.1,0.3,0,0.4l-0.4,0c-0.3,0-0.5,0.1-0.5,0.2
		c0,0.1,0.2,0.4,0.5,0.9c0.5,0.8,1.5,2.2,2,2.9c0.4-0.5,1.8-2.8,2.1-3.3c0.1-0.2,0.2-0.4,0.2-0.5c0-0.1-0.2-0.2-0.5-0.2l-0.4,0
		c-0.1-0.1-0.1-0.3,0-0.4c0.6,0,1.1,0,1.7,0c0.6,0,1,0,1.5,0c0.1,0.1,0.1,0.3,0,0.4l-0.4,0c-0.5,0-1,0.5-1.7,1.4
		c-0.6,0.8-1.3,1.8-2.1,2.8c-0.1,0.1-0.2,0.3-0.2,0.3c0,0,0,0.2,0.2,0.4l2.7,3.8c0.5,0.8,1,1,1.4,1.1L43.5,261.5z"/>
	<path d="M45.5,252.4c1.2-0.9,2.6-1.4,4.3-1.4c0.9,0,2.1,0.2,2.8,0.4c0.2,0,0.3,0.1,0.4,0.1c0,0.4,0.1,1.4,0.2,2.4
		c-0.1,0.1-0.3,0.1-0.4,0c-0.2-1.1-1-2.3-3.2-2.3c-2.4,0-4.5,1.6-4.5,4.9c0,3.4,2.1,5.2,4.7,5.2c2,0,2.9-1.3,3.3-2.3
		c0.1-0.1,0.3,0,0.4,0.1c-0.1,0.8-0.5,1.9-0.8,2.2c-0.2,0-0.4,0.1-0.6,0.2c-0.3,0.1-1.5,0.4-2.5,0.4c-1.4,0-2.8-0.3-3.9-1.1
		c-1.3-0.9-2.2-2.3-2.2-4.4C43.5,254.9,44.3,253.4,45.5,252.4z"/>
	<path d="M55.8,253.7c0-1.7,0-1.9-1-2l-0.4,0c-0.1-0.1-0.1-0.4,0-0.4c0.9,0,1.4,0,2.1,0c0.6,0,1.2,0,1.9,0c0.1,0,0.1,0.3,0,0.4
		l-0.4,0c-0.9,0.1-1,0.3-1,2v5.6c0,1,0,1.4,0.3,1.7c0.2,0.2,0.5,0.4,1.7,0.4c1.3,0,1.7-0.1,1.9-0.2c0.3-0.2,0.7-0.8,1-1.6
		c0.1-0.1,0.4,0,0.4,0.1c0,0.2-0.4,1.8-0.7,2.2c-0.8,0-2.3,0-3.9,0h-1.5c-0.7,0-1.2,0-2.1,0c-0.1,0-0.1-0.3,0-0.4l0.5,0
		c0.9-0.1,1-0.3,1-2V253.7z"/>
	<path d="M71.9,255.3c0-1,0-2.8-0.3-3.3c-0.1-0.2-0.4-0.3-0.8-0.3l-0.4,0c-0.1-0.1-0.1-0.3,0-0.4c0.6,0,1.2,0,1.8,0
		c0.7,0,1.1,0,1.7,0c0.1,0.1,0.1,0.3,0,0.4l-0.4,0c-0.4,0-0.7,0.2-0.8,0.4c-0.2,0.5-0.2,2.4-0.2,3.3v1.8c0,1.4-0.2,2.9-1.1,3.8
		c-0.7,0.8-1.9,1.2-3,1.2c-1.1,0-2.2-0.2-3-0.9c-0.8-0.7-1.2-1.9-1.2-3.8v-3.8c0-1.7,0-1.9-1-2l-0.4,0c-0.1-0.1-0.1-0.3,0-0.4
		c0.8,0,1.3,0,2,0c0.6,0,1.2,0,1.9,0c0.1,0,0.1,0.3,0,0.4l-0.4,0c-0.9,0.1-1,0.4-1,2v3.5c0,2.6,0.8,4.3,3.2,4.3
		c2.3,0,3.2-1.8,3.2-4.3V255.3z"/>
	<path d="M77.7,262.1c-1.3,0-2.2-0.4-2.5-0.6c-0.2-0.4-0.4-1.5-0.4-2.2c0.1-0.1,0.3-0.1,0.4,0c0.2,0.8,0.9,2.4,2.7,2.4
		c1.3,0,2-0.9,2-1.8c0-0.7-0.1-1.5-1.3-2.2l-1.5-1c-0.8-0.5-1.7-1.4-1.7-2.8c0-1.5,1.2-2.8,3.2-2.8c0.5,0,1.1,0.1,1.5,0.2
		c0.2,0.1,0.4,0.1,0.6,0.1c0.1,0.4,0.3,1.3,0.3,2c-0.1,0.1-0.3,0.1-0.4,0c-0.2-0.8-0.6-1.8-2.2-1.8c-1.6,0-1.9,1-1.9,1.8
		c0,0.9,0.8,1.6,1.3,2l1.3,0.8c1,0.6,2,1.6,2,3.1C81,260.9,79.7,262.1,77.7,262.1z"/>
	<path d="M83.9,253.8c0-1.7,0-2-1-2l-0.4,0c-0.1-0.1-0.1-0.4,0-0.4c0.8,0,1.3,0,2,0c0.6,0,1.2,0,2,0c0.1,0,0.1,0.3,0,0.4l-0.4,0
		c-0.9,0.1-1,0.4-1,2v5.7c0,1.7,0,1.9,1,2l0.4,0c0.1,0.1,0.1,0.4,0,0.4c-0.8,0-1.3,0-2,0c-0.7,0-1.2,0-2,0c-0.1,0-0.1-0.3,0-0.4
		l0.4,0c0.9-0.1,1-0.3,1-2V253.8z"/>
	<path d="M88.8,253c-0.4-0.9-0.6-1.2-1.3-1.3l-0.3,0c-0.1-0.1-0.1-0.3,0-0.4c0.5,0,1,0,1.6,0c0.7,0,1.3,0,1.9,0
		c0.1,0.1,0.1,0.3,0,0.4l-0.2,0c-0.6,0.1-0.7,0.2-0.7,0.3c0,0.2,0.3,1,0.8,2.2c0.7,1.9,1.5,3.7,2.2,5.5c0.5-1.1,1.2-2.7,1.5-3.5
		c0.5-1.1,1.2-2.9,1.5-3.6c0.1-0.3,0.1-0.5,0.1-0.6c0-0.1-0.2-0.2-0.7-0.3l-0.3,0c-0.1-0.1-0.1-0.3,0-0.4c0.4,0,1,0,1.6,0
		c0.5,0,1,0,1.5,0c0.1,0.1,0.1,0.3,0,0.4l-0.5,0c-0.4,0-0.6,0.2-0.8,0.6c-0.4,0.8-1.1,2-1.8,3.7l-0.9,2c-0.6,1.5-1.4,3.3-1.6,4.2
		c0,0-0.1,0-0.2,0c-0.1,0-0.2,0-0.2,0c-0.2-0.7-0.5-1.5-0.7-2.1L88.8,253z"/>
	<path d="M100,253.7c0-1.7,0-1.9-1-2l-0.3,0c-0.1-0.1-0.1-0.4,0-0.4c0.7,0,1.2,0,1.9,0h3c1,0,1.9,0,2.1,0c0.1,0.3,0.2,1.4,0.3,2.1
		c-0.1,0.1-0.3,0.1-0.4,0c-0.2-0.8-0.4-1.3-1.2-1.5c-0.3-0.1-0.8-0.1-1.5-0.1h-1.1c-0.5,0-0.5,0-0.5,0.6v3.2c0,0.4,0,0.4,0.5,0.4
		h0.9c0.7,0,1.2,0,1.3-0.1c0.2-0.1,0.3-0.2,0.4-0.6l0.1-0.7c0.1-0.1,0.3-0.1,0.4,0c0,0.4-0.1,1-0.1,1.6c0,0.6,0.1,1.2,0.1,1.5
		c-0.1,0.1-0.3,0.1-0.4,0l-0.1-0.6c-0.1-0.3-0.2-0.5-0.5-0.6c-0.2-0.1-0.6-0.1-1.2-0.1h-0.9c-0.5,0-0.5,0-0.5,0.4v2.3
		c0,0.8,0,1.4,0.3,1.7c0.2,0.2,0.5,0.4,1.9,0.4c1.2,0,1.7-0.1,2-0.2c0.3-0.2,0.7-0.7,1.1-1.6c0.1-0.1,0.3,0,0.4,0.1
		c-0.1,0.6-0.5,1.8-0.7,2.2c-1.4,0-2.8,0-4.2,0h-1.4c-0.7,0-1.2,0-2.2,0c-0.1,0-0.1-0.3,0-0.4l0.5,0c0.9-0.1,1-0.3,1-2V253.7z"/>
	<path d="M114.5,259.5c0,1.7,0,1.9,1,2l0.4,0c0.1,0.1,0.1,0.4,0,0.4c-0.9,0-1.4,0-2.1,0c-0.7,0-1.2,0-1.9,0c-0.1,0-0.1-0.3,0-0.4
		l0.3,0c0.9-0.1,1-0.3,1-2v-5.9c0-1.4,0-1.6-0.7-1.7l-0.6-0.1c-0.1-0.1-0.1-0.3,0-0.4c0.8-0.1,1.8-0.1,3.1-0.1c1.3,0,2.3,0.2,3,0.6
		c0.7,0.5,1.3,1.3,1.3,2.4c0,1.5-0.9,2.2-1.6,2.5c-0.7,0.3-1.5,0.5-2.2,0.5c-0.1,0-0.1-0.3,0-0.3c1.7-0.3,2.3-1.3,2.3-2.7
		c0-1.6-0.9-2.6-2.5-2.6c-0.8,0-0.9,0.1-0.9,0.6V259.5z"/>
	<path d="M121.9,253.7c0-1.5,0-1.8-0.7-1.9l-0.5-0.1c-0.1-0.1-0.1-0.3,0-0.4c0.9-0.1,2-0.1,3.5-0.1c1,0,1.9,0.1,2.6,0.5
		c0.8,0.4,1.3,1.1,1.3,2.2c0,1.5-1.2,2.4-2,2.7c-0.1,0.1,0,0.3,0.1,0.4c1.3,2.1,2.1,3.3,3.2,4.3c0.3,0.2,0.7,0.4,1.1,0.4
		c0.1,0,0.1,0.2,0,0.2c-0.1,0-0.4,0.1-0.7,0.1c-1.3,0-2.2-0.4-3.3-2c-0.4-0.6-1.1-1.7-1.6-2.4c-0.2-0.4-0.5-0.5-1.1-0.5
		c-0.7,0-0.7,0-0.7,0.4v2c0,1.7,0,1.9,1,2l0.3,0c0.1,0.1,0.1,0.4,0,0.4c-0.7,0-1.3,0-1.9,0c-0.7,0-1.2,0-2,0c-0.1,0-0.1-0.3,0-0.4
		l0.4,0c0.9-0.1,1-0.3,1-2V253.7z M123.2,256c0,0.3,0,0.5,0,0.5c0,0,0.3,0.1,1.1,0.1c0.6,0,1.2-0.1,1.6-0.4c0.4-0.3,0.8-0.9,0.8-2
		c0-1.3-0.8-2.5-2.5-2.5c-1,0-1,0.1-1,0.5V256z"/>
	<path d="M132.1,253.7c0-1.7,0-1.9-1-2l-0.3,0c-0.1-0.1-0.1-0.4,0-0.4c0.7,0,1.2,0,1.9,0h3c1,0,1.9,0,2.1,0c0.1,0.3,0.2,1.4,0.3,2.1
		c-0.1,0.1-0.3,0.1-0.4,0c-0.2-0.8-0.4-1.3-1.2-1.5c-0.3-0.1-0.8-0.1-1.5-0.1h-1.1c-0.5,0-0.5,0-0.5,0.6v3.2c0,0.4,0,0.4,0.5,0.4
		h0.9c0.7,0,1.2,0,1.3-0.1c0.2-0.1,0.3-0.2,0.4-0.6l0.1-0.7c0.1-0.1,0.3-0.1,0.4,0c0,0.4-0.1,1-0.1,1.6c0,0.6,0.1,1.2,0.1,1.5
		c-0.1,0.1-0.3,0.1-0.4,0l-0.1-0.6c-0.1-0.3-0.2-0.5-0.5-0.6c-0.2-0.1-0.6-0.1-1.2-0.1h-0.9c-0.5,0-0.5,0-0.5,0.4v2.3
		c0,0.8,0,1.4,0.3,1.7c0.2,0.2,0.5,0.4,1.9,0.4c1.2,0,1.7-0.1,2-0.2c0.3-0.2,0.7-0.7,1.1-1.6c0.1-0.1,0.3,0,0.4,0.1
		c-0.1,0.6-0.5,1.8-0.7,2.2c-1.4,0-2.8,0-4.2,0h-1.4c-0.7,0-1.2,0-2.2,0c-0.1,0-0.1-0.3,0-0.4l0.5,0c0.9-0.1,1-0.3,1-2V253.7z"/>
	<path d="M140.7,253c-0.4-0.9-0.6-1.2-1.3-1.3l-0.3,0c-0.1-0.1-0.1-0.3,0-0.4c0.5,0,1,0,1.6,0c0.7,0,1.3,0,1.9,0
		c0.1,0.1,0.1,0.3,0,0.4l-0.2,0c-0.6,0.1-0.7,0.2-0.7,0.3c0,0.2,0.3,1,0.8,2.2c0.7,1.9,1.5,3.7,2.2,5.5c0.5-1.1,1.2-2.7,1.5-3.5
		c0.5-1.1,1.2-2.9,1.5-3.6c0.1-0.3,0.1-0.5,0.1-0.6c0-0.1-0.2-0.2-0.7-0.3l-0.3,0c-0.1-0.1-0.1-0.3,0-0.4c0.4,0,1,0,1.6,0
		c0.5,0,1,0,1.5,0c0.1,0.1,0.1,0.3,0,0.4l-0.5,0c-0.4,0-0.6,0.2-0.8,0.6c-0.4,0.8-1.1,2-1.8,3.7l-0.9,2c-0.6,1.5-1.4,3.3-1.6,4.2
		c0,0-0.1,0-0.2,0c-0.1,0-0.2,0-0.2,0c-0.2-0.7-0.5-1.5-0.7-2.1L140.7,253z"/>
	<path d="M151.9,253.8c0-1.7,0-2-1-2l-0.4,0c-0.1-0.1-0.1-0.4,0-0.4c0.8,0,1.3,0,2,0c0.6,0,1.2,0,2,0c0.1,0,0.1,0.3,0,0.4l-0.4,0
		c-0.9,0.1-1,0.4-1,2v5.7c0,1.7,0,1.9,1,2l0.4,0c0.1,0.1,0.1,0.4,0,0.4c-0.8,0-1.3,0-2,0c-0.7,0-1.2,0-2,0c-0.1,0-0.1-0.3,0-0.4
		l0.4,0c0.9-0.1,1-0.3,1-2V253.8z"/>
	<path d="M157.2,253.7c0-1.7,0-1.9-1-2l-0.3,0c-0.1-0.1-0.1-0.4,0-0.4c0.7,0,1.2,0,1.9,0h3c1,0,1.9,0,2.1,0c0.1,0.3,0.2,1.4,0.3,2.1
		c-0.1,0.1-0.3,0.1-0.4,0c-0.2-0.8-0.4-1.3-1.2-1.5c-0.3-0.1-0.8-0.1-1.5-0.1H159c-0.5,0-0.5,0-0.5,0.6v3.2c0,0.4,0,0.4,0.5,0.4h0.9
		c0.7,0,1.2,0,1.3-0.1c0.2-0.1,0.3-0.2,0.4-0.6l0.1-0.7c0.1-0.1,0.3-0.1,0.4,0c0,0.4-0.1,1-0.1,1.6c0,0.6,0.1,1.2,0.1,1.5
		c-0.1,0.1-0.3,0.1-0.4,0l-0.1-0.6c-0.1-0.3-0.2-0.5-0.5-0.6c-0.2-0.1-0.6-0.1-1.2-0.1H159c-0.5,0-0.5,0-0.5,0.4v2.3
		c0,0.8,0,1.4,0.3,1.7c0.2,0.2,0.5,0.4,1.9,0.4c1.2,0,1.7-0.1,2-0.2c0.3-0.2,0.7-0.7,1.1-1.6c0.1-0.1,0.3,0,0.4,0.1
		c-0.1,0.6-0.5,1.8-0.7,2.2c-1.4,0-2.8,0-4.2,0h-1.4c-0.7,0-1.2,0-2.2,0c-0.1,0-0.1-0.3,0-0.4l0.5,0c0.9-0.1,1-0.3,1-2V253.7z"/>
	<path d="M164.2,251.7c-0.1-0.1-0.1-0.3,0-0.4c0.4,0,1.1,0,1.6,0c0.4,0,1.3,0,1.8,0c0.1,0,0.1,0.3,0,0.4l-0.4,0
		c-0.3,0-0.5,0.1-0.5,0.3c0,0.2,0.3,1,0.8,2.1c0.9,2,1.8,4,2.7,6c0.4-0.8,0.8-1.7,1.2-2.6c0.1-0.3,0.3-0.6,0.3-0.7s0-0.2-0.1-0.4
		c-0.6-1.3-1.1-2.6-1.7-3.8c-0.2-0.5-0.5-0.8-1-0.9l-0.4,0c-0.1-0.1-0.1-0.3,0-0.4c0.5,0,1.1,0,1.7,0c0.8,0,1.4,0,1.7,0
		c0.1,0,0.1,0.3,0,0.4l-0.4,0c-0.6,0-0.6,0.2-0.3,0.9c0.3,0.8,0.8,1.8,1.2,2.8c0.3-0.6,0.6-1.2,0.9-2.1c0.6-1.4,0.5-1.5,0-1.6
		l-0.5,0c-0.1-0.2-0.1-0.3,0-0.4c0.4,0,0.9,0,1.5,0c0.5,0,1.2,0,1.5,0c0.1,0,0.1,0.3,0,0.4l-0.5,0c-0.7,0-1,0.8-1.3,1.4
		c-0.3,0.6-1,2-1.2,2.5c-0.1,0.2-0.1,0.3-0.1,0.4c0,0.1,0,0.2,0.1,0.4c0.5,1.2,1.1,2.4,1.6,3.6c0.5-1.1,1-2.2,1.4-3.4
		c0.3-0.8,1.2-2.9,1.3-3.2c0.2-0.6,0.5-1.3,0.5-1.5c0-0.2-0.2-0.4-0.5-0.4l-0.5,0c-0.1-0.1-0.1-0.3,0-0.4c0.6,0,1,0,1.5,0
		c0.6,0,1.1,0,1.5,0c0.1,0,0.1,0.3,0,0.4l-0.3,0c-0.8,0.1-0.9,0.6-1.9,2.8l-1.2,2.7c-0.7,1.6-1.3,3.2-2,4.9c0,0-0.1,0-0.2,0
		c-0.1,0-0.2,0-0.2,0c-0.5-1.4-1.4-3.4-1.9-4.5c-0.6,1.2-1.5,3.2-2,4.5c0,0-0.1,0-0.2,0c-0.1,0-0.2,0-0.2,0
		c-0.3-0.7-0.9-2.1-1.1-2.6c-1-2.2-2-4.4-3-6.7c-0.3-0.7-0.5-1.1-1.2-1.2L164.2,251.7z"/>
	<path d="M185.5,253.4c0-1.1-0.1-1.5-0.7-1.6l-0.3,0c-0.1-0.1-0.1-0.3,0-0.4c1.3-0.1,2.6-0.1,4-0.1c1.3,0,2.5,0.1,3.5,0.5
		c2.1,0.8,3.2,2.6,3.2,4.7c0,2-1,3.8-2.8,4.8c-1,0.6-2.3,0.8-3.5,0.8c-1,0-2-0.1-2.6-0.1c-0.7,0-1.2,0-2,0c-0.1,0-0.1-0.3,0-0.4
		l0.4,0c0.9-0.1,1-0.3,1-2V253.4z M186.8,259.1c0,0.8,0,1.4,0.3,1.7c0.3,0.5,1,0.7,1.9,0.7c3.1,0,4.5-2,4.5-5c0-1.8-0.8-4.7-5-4.7
		c-0.9,0-1.4,0.1-1.6,0.2s-0.2,0.5-0.2,1.2V259.1z"/>
	<path d="M202.2,258.2c-0.1-0.4-0.2-0.4-0.6-0.4h-2.4c-0.4,0-0.5,0-0.6,0.4l-0.6,1.7c-0.2,0.7-0.3,1.2-0.3,1.3
		c0,0.2,0.1,0.3,0.5,0.3l0.5,0c0.1,0.1,0.1,0.3,0,0.4c-0.4,0-0.9,0-1.6,0c-0.5,0-1.1,0-1.5,0c-0.1-0.1-0.1-0.3,0-0.4l0.5,0
		c0.4,0,0.7-0.2,1-0.8c0.3-0.7,0.7-1.8,1.4-3.6l1.6-4.3c0.2-0.6,0.3-0.9,0.3-1.1c0.4-0.1,0.7-0.4,0.8-0.6c0.1,0,0.2,0,0.2,0.1
		c0.2,0.7,0.5,1.4,0.7,2.1l2.2,6.4c0.5,1.4,0.7,1.6,1.3,1.7l0.4,0c0.1,0.1,0.1,0.3,0,0.4c-0.6,0-1.2,0-1.9,0c-0.8,0-1.4,0-1.8,0
		c-0.1-0.1-0.1-0.3,0-0.4l0.5,0c0.3,0,0.6-0.1,0.6-0.3c0-0.2-0.1-0.5-0.2-0.8L202.2,258.2z M199.1,256.7c-0.1,0.4-0.1,0.4,0.3,0.4
		h1.9c0.5,0,0.5-0.1,0.3-0.5l-0.9-2.6c-0.1-0.4-0.3-0.8-0.4-1h0c0,0.1-0.2,0.5-0.4,0.9L199.1,256.7z"/>
	<path d="M210,259.4c0,1.7,0.1,2,1,2l0.6,0c0.1,0.1,0.1,0.4,0,0.4c-1,0-1.5,0-2.2,0c-0.7,0-1.2,0-2.1,0c-0.1,0-0.1-0.3,0-0.4l0.5,0
		c0.9-0.1,1-0.3,1-2v-0.8c0-0.9,0-1.1-0.5-2l-1.9-3.7c-0.5-1.1-0.8-1.1-1.3-1.2l-0.4-0.1c-0.1-0.1-0.1-0.3,0-0.4c0.5,0,1.1,0,1.8,0
		c0.7,0,1.3,0,1.7,0c0.1,0,0.1,0.3,0,0.4l-0.2,0c-0.6,0.1-0.7,0.2-0.7,0.3c0,0.2,0.4,1.1,0.5,1.2c0.6,1.2,1.2,2.4,1.8,3.6
		c0.5-0.8,1-1.8,1.5-2.7c0.4-0.8,1-1.9,1-2.1c0-0.1-0.3-0.2-0.7-0.3l-0.3,0c-0.1-0.1-0.1-0.3,0-0.4c0.6,0,1,0,1.5,0
		c0.5,0,0.9,0,1.5,0c0.1,0.1,0.1,0.3,0,0.4l-0.4,0.1c-0.8,0.1-1.3,1.2-2.1,2.5l-1,1.7c-0.7,1.2-0.7,1.4-0.7,2.6V259.4z"/>
	<path d="M215.5,261.5c0,1.3-1,2-2.1,2.3c-0.1,0-0.2-0.3-0.1-0.4c0.5-0.2,1.3-0.6,1.3-1.4c0-0.7-0.8-0.8-0.9-0.9
		c-0.2-0.1-0.3-0.3-0.3-0.5c0-0.4,0.3-0.7,0.8-0.7C214.8,259.9,215.5,260.4,215.5,261.5z"/>
</g>
<g id="REGISTER" class="st0">
	<path class="st1" d="M35.8,171.6c0-2.5-0.1-2.9-1.1-3l-0.8-0.1c-0.2-0.1-0.2-0.5,0-0.6c1.4-0.1,3.2-0.2,5.7-0.2
		c1.6,0,3.1,0.1,4.3,0.8c1.2,0.6,2.1,1.8,2.1,3.6c0,2.5-1.9,3.8-3.2,4.3c-0.1,0.2,0,0.4,0.1,0.6c2.1,3.4,3.4,5.4,5.2,6.9
		c0.4,0.4,1.1,0.7,1.8,0.7c0.1,0.1,0.2,0.3,0,0.4c-0.2,0.1-0.6,0.1-1.1,0.1c-2.2,0-3.5-0.7-5.3-3.3c-0.7-1-1.7-2.8-2.5-3.9
		c-0.4-0.6-0.8-0.8-1.8-0.8c-1.2,0-1.2,0-1.2,0.6v3.3c0,2.7,0.1,3,1.5,3.3l0.5,0.1c0.2,0.1,0.1,0.6-0.1,0.7c-1.2-0.1-2-0.1-3.1-0.1
		c-1.1,0-2,0-3.2,0.1c-0.2-0.1-0.2-0.5-0.1-0.7l0.6-0.1c1.5-0.2,1.5-0.5,1.5-3.3V171.6z M37.9,175.4c0,0.5,0,0.8,0.1,0.9
		c0.1,0.1,0.5,0.1,1.8,0.1c0.9,0,1.9-0.1,2.6-0.7c0.7-0.5,1.3-1.5,1.3-3.2c0-2.1-1.3-4-4.1-4c-1.6,0-1.7,0.1-1.7,0.8V175.4z"/>
	<path class="st1" d="M52.4,171.6c0-2.7-0.1-3.1-1.6-3.3l-0.4-0.1c-0.2-0.1-0.1-0.6,0.1-0.7c1.1,0.1,2,0.1,3,0.1h4.8
		c1.6,0,3.2,0,3.5-0.1c0.2,0.4,0.3,2.3,0.4,3.5c-0.1,0.2-0.5,0.2-0.6,0.1c-0.4-1.2-0.6-2.1-2-2.5c-0.5-0.1-1.4-0.2-2.5-0.2h-1.9
		c-0.8,0-0.8,0.1-0.8,1v5.2c0,0.7,0.1,0.7,0.8,0.7h1.5c1.1,0,1.9-0.1,2.2-0.2c0.3-0.1,0.5-0.3,0.6-0.9l0.2-1.1
		c0.1-0.2,0.6-0.2,0.7,0c0,0.6-0.1,1.6-0.1,2.6c0,0.9,0.1,1.9,0.1,2.5c-0.1,0.2-0.5,0.2-0.7,0l-0.2-1c-0.1-0.5-0.3-0.9-0.8-1
		c-0.4-0.1-1-0.1-2-0.1h-1.5c-0.8,0-0.8,0-0.8,0.7v3.7c0,1.4,0.1,2.3,0.5,2.7c0.3,0.3,0.8,0.6,3.1,0.6c2,0,2.7-0.1,3.3-0.4
		c0.5-0.3,1.2-1.2,1.8-2.5c0.2-0.1,0.5-0.1,0.6,0.2c-0.2,0.9-0.8,2.9-1.2,3.6c-2.3-0.1-4.6-0.1-6.9-0.1h-2.3c-1.1,0-2,0-3.5,0.1
		c-0.2-0.1-0.2-0.5-0.1-0.7l0.8-0.1c1.5-0.1,1.6-0.5,1.6-3.3V171.6z"/>
	<path class="st1" d="M80.8,182.2c0,1,0.2,1.7,0.6,1.8c0.1,0.1,0.1,0.2,0,0.3c-0.3,0-0.8,0.1-1.3,0.2c-1.4,0.4-3.2,0.7-4.6,0.7
		c-3.1,0-5.9-0.9-7.8-2.9c-1.5-1.6-2.4-3.6-2.4-5.9c0-2.2,0.7-4.4,2.3-6.2c1.7-1.8,4.3-3,8.2-3c1.5,0,2.8,0.3,3.3,0.4
		c0.5,0.1,1.3,0.3,1.6,0.2c0,0.9,0.2,2.2,0.4,3.8c-0.1,0.2-0.5,0.2-0.7,0.1c-0.7-2.8-2.6-3.7-5.3-3.7c-5,0-7.2,3.6-7.2,7.5
		c0,5,2.5,8.9,7.7,8.9c1.6,0,2.5-0.3,2.8-0.8c0.1-0.2,0.3-0.7,0.3-1.5v-1c0-2.2-0.1-2.3-1.7-2.5l-1.1-0.1c-0.2-0.1-0.2-0.6,0-0.6
		c0.7,0.1,2.2,0.1,3.7,0.1c1,0,1.9,0,2.7-0.1c0.2,0.1,0.2,0.5,0,0.6l-0.4,0.1c-1.1,0.1-1.1,0.9-1.1,2.2V182.2z"/>
	<path class="st1" d="M86.6,171.7c0-2.8-0.1-3.2-1.6-3.3l-0.6-0.1c-0.2-0.1-0.1-0.6,0.1-0.7c1.3,0.1,2.2,0.1,3.2,0.1
		c1,0,1.9,0,3.2-0.1c0.2,0.1,0.2,0.5,0.1,0.7l-0.6,0.1c-1.5,0.1-1.6,0.6-1.6,3.3v9.3c0,2.8,0.1,3.1,1.6,3.3l0.6,0.1
		c0.2,0.1,0.1,0.6-0.1,0.7c-1.3-0.1-2.2-0.1-3.2-0.1c-1.1,0-2,0-3.2,0.1c-0.2-0.1-0.2-0.5-0.1-0.7l0.6-0.1c1.5-0.2,1.6-0.5,1.6-3.3
		V171.7z"/>
	<path class="st1" d="M97.8,185.3c-2.2,0-3.5-0.7-4-1c-0.3-0.6-0.6-2.4-0.7-3.6c0.1-0.2,0.5-0.2,0.6-0.1c0.4,1.3,1.4,3.9,4.4,3.9
		c2.2,0,3.2-1.4,3.2-3c0-1.1-0.2-2.4-2.1-3.6l-2.4-1.6c-1.3-0.9-2.8-2.3-2.8-4.5c0-2.5,1.9-4.5,5.2-4.5c0.8,0,1.7,0.2,2.4,0.3
		c0.3,0.1,0.7,0.2,0.9,0.2c0.2,0.6,0.5,2.1,0.5,3.2c-0.1,0.2-0.5,0.2-0.6,0.1c-0.3-1.2-1-2.9-3.5-2.9c-2.5,0-3.1,1.7-3.1,2.9
		c0,1.5,1.2,2.6,2.2,3.2l2.1,1.3c1.6,1,3.2,2.5,3.2,5C103.3,183.3,101.1,185.3,97.8,185.3z"/>
	<path class="st1" d="M114.1,181c0,2.7,0.1,3.1,1.5,3.3l0.8,0.1c0.2,0.1,0.1,0.6-0.1,0.7c-1.5-0.1-2.3-0.1-3.4-0.1
		c-1,0-1.9,0-3.6,0.1c-0.2-0.1-0.2-0.5,0-0.7l0.9-0.1c1.5-0.1,1.6-0.5,1.6-3.3v-11.6c0-0.8,0-0.8-0.8-0.8h-1.4
		c-1.1,0-2.5,0.1-3.2,0.7c-0.6,0.6-0.9,1.1-1.2,1.8c-0.2,0.2-0.6,0-0.7-0.2c0.4-1.2,0.8-2.8,1-3.9c0.1-0.1,0.4-0.1,0.5,0
		c0.2,0.8,1,0.8,2.2,0.8h10.4c1.4,0,1.6-0.1,2-0.7c0.1-0.1,0.4,0,0.5,0.1c-0.3,1.1-0.5,3.2-0.4,4c-0.1,0.2-0.5,0.2-0.7,0.1
		c-0.1-0.6-0.3-1.6-0.6-1.9c-0.6-0.4-1.6-0.7-3-0.7h-1.8c-0.8,0-0.7,0-0.7,0.9V181z"/>
	<path class="st1" d="M124.9,171.6c0-2.7-0.1-3.1-1.6-3.3l-0.4-0.1c-0.2-0.1-0.1-0.6,0.1-0.7c1.1,0.1,2,0.1,3,0.1h4.8
		c1.6,0,3.2,0,3.5-0.1c0.2,0.4,0.3,2.3,0.4,3.5c-0.1,0.2-0.5,0.2-0.6,0.1c-0.4-1.2-0.6-2.1-2-2.5c-0.5-0.1-1.4-0.2-2.5-0.2h-1.9
		c-0.8,0-0.8,0.1-0.8,1v5.2c0,0.7,0.1,0.7,0.8,0.7h1.5c1.1,0,1.9-0.1,2.2-0.2c0.3-0.1,0.5-0.3,0.6-0.9l0.2-1.1
		c0.1-0.2,0.6-0.2,0.7,0c0,0.6-0.1,1.6-0.1,2.6c0,0.9,0.1,1.9,0.1,2.5c-0.1,0.2-0.5,0.2-0.7,0l-0.2-1c-0.1-0.5-0.3-0.9-0.8-1
		c-0.4-0.1-1-0.1-2-0.1h-1.5c-0.8,0-0.8,0-0.8,0.7v3.7c0,1.4,0.1,2.3,0.5,2.7c0.3,0.3,0.8,0.6,3.1,0.6c2,0,2.7-0.1,3.3-0.4
		c0.5-0.3,1.2-1.2,1.8-2.5c0.2-0.1,0.5-0.1,0.6,0.2c-0.2,0.9-0.8,2.9-1.2,3.6c-2.3-0.1-4.6-0.1-6.9-0.1H126c-1.1,0-2,0-3.5,0.1
		c-0.2-0.1-0.2-0.5-0.1-0.7l0.8-0.1c1.5-0.1,1.6-0.5,1.6-3.3V171.6z"/>
	<path class="st1" d="M139.9,171.6c0-2.5-0.1-2.9-1.1-3l-0.8-0.1c-0.2-0.1-0.2-0.5,0-0.6c1.4-0.1,3.2-0.2,5.7-0.2
		c1.6,0,3.1,0.1,4.3,0.8c1.2,0.6,2.1,1.8,2.1,3.6c0,2.5-1.9,3.8-3.2,4.3c-0.1,0.2,0,0.4,0.1,0.6c2.1,3.4,3.4,5.4,5.2,6.9
		c0.4,0.4,1.1,0.7,1.8,0.7c0.1,0.1,0.2,0.3,0,0.4c-0.2,0.1-0.6,0.1-1.1,0.1c-2.2,0-3.5-0.7-5.3-3.3c-0.7-1-1.7-2.8-2.5-3.9
		c-0.4-0.6-0.8-0.8-1.8-0.8c-1.2,0-1.2,0-1.2,0.6v3.3c0,2.7,0.1,3,1.5,3.3l0.5,0.1c0.2,0.1,0.1,0.6-0.1,0.7c-1.2-0.1-2-0.1-3.1-0.1
		c-1.1,0-2,0-3.2,0.1c-0.2-0.1-0.2-0.5-0.1-0.7l0.6-0.1c1.5-0.2,1.5-0.5,1.5-3.3V171.6z M142,175.4c0,0.5,0,0.8,0.1,0.9
		c0.1,0.1,0.5,0.1,1.8,0.1c0.9,0,1.9-0.1,2.6-0.7c0.7-0.5,1.3-1.5,1.3-3.2c0-2.1-1.3-4-4.1-4c-1.6,0-1.7,0.1-1.7,0.8V175.4z"/>
</g>
<g>
	<rect x="2.5" y="151.1" class="st1" width="3" height="49"/>
</g>
</svg>
